<?xml version="1.0" encoding="UTF-8" standalone="no"?>
<svg>
<metadata>built for 'CBISF' braille table on Sun Dec 07 11:53:09 CET 2014</metadata>
<defs>
<font horiz-adv-x="760" id="Braille-CBISF" vert-adv-y="">
<font-face ascent="660" descent="-250" font-family="Braille" font-stretch="normal" font-weight="normal" units-per-em="1024"/>
<missing-glyph/>
<glyph d="M 80 580 m -20, 0 a 20,20 0 1,1 40,0 a 20,20 0 1,1 -40,0 z M 80 330 m -20, 0 a 20,20 0 1,1 40,0 a 20,20 0 1,1 -40,0 z M 80 80 m -20, 0 a 20,20 0 1,1 40,0 a 20,20 0 1,1 -40,0 z M 330 580 m -20, 0 a 20,20 0 1,1 40,0 a 20,20 0 1,1 -40,0 z M 330 330 m -20, 0 a 20,20 0 1,1 40,0 a 20,20 0 1,1 -40,0 z M 330 80 m -20, 0 a 20,20 0 1,1 40,0 a 20,20 0 1,1 -40,0 z " horiz-adv-x="760" unicode=" "/>
<glyph d="M 80 580 m -80, 0 a 80,80 0 1,1 160,0 a 80,80 0 1,1 -160,0 z M 80 330 m -20, 0 a 20,20 0 1,1 40,0 a 20,20 0 1,1 -40,0 z M 80 80 m -20, 0 a 20,20 0 1,1 40,0 a 20,20 0 1,1 -40,0 z M 330 580 m -20, 0 a 20,20 0 1,1 40,0 a 20,20 0 1,1 -40,0 z M 330 330 m -20, 0 a 20,20 0 1,1 40,0 a 20,20 0 1,1 -40,0 z M 330 80 m -20, 0 a 20,20 0 1,1 40,0 a 20,20 0 1,1 -40,0 z " horiz-adv-x="760" unicode="a"/>
<glyph d="M 80 580 m -20, 0 a 20,20 0 1,1 40,0 a 20,20 0 1,1 -40,0 z M 80 330 m -80, 0 a 80,80 0 1,1 160,0 a 80,80 0 1,1 -160,0 z M 80 80 m -20, 0 a 20,20 0 1,1 40,0 a 20,20 0 1,1 -40,0 z M 330 580 m -20, 0 a 20,20 0 1,1 40,0 a 20,20 0 1,1 -40,0 z M 330 330 m -20, 0 a 20,20 0 1,1 40,0 a 20,20 0 1,1 -40,0 z M 330 80 m -20, 0 a 20,20 0 1,1 40,0 a 20,20 0 1,1 -40,0 z " horiz-adv-x="760" unicode=","/>
<glyph d="M 80 580 m -80, 0 a 80,80 0 1,1 160,0 a 80,80 0 1,1 -160,0 z M 80 330 m -80, 0 a 80,80 0 1,1 160,0 a 80,80 0 1,1 -160,0 z M 80 80 m -20, 0 a 20,20 0 1,1 40,0 a 20,20 0 1,1 -40,0 z M 330 580 m -20, 0 a 20,20 0 1,1 40,0 a 20,20 0 1,1 -40,0 z M 330 330 m -20, 0 a 20,20 0 1,1 40,0 a 20,20 0 1,1 -40,0 z M 330 80 m -20, 0 a 20,20 0 1,1 40,0 a 20,20 0 1,1 -40,0 z " horiz-adv-x="760" unicode="b"/>
<glyph d="M 80 580 m -20, 0 a 20,20 0 1,1 40,0 a 20,20 0 1,1 -40,0 z M 80 330 m -20, 0 a 20,20 0 1,1 40,0 a 20,20 0 1,1 -40,0 z M 80 80 m -80, 0 a 80,80 0 1,1 160,0 a 80,80 0 1,1 -160,0 z M 330 580 m -20, 0 a 20,20 0 1,1 40,0 a 20,20 0 1,1 -40,0 z M 330 330 m -20, 0 a 20,20 0 1,1 40,0 a 20,20 0 1,1 -40,0 z M 330 80 m -20, 0 a 20,20 0 1,1 40,0 a 20,20 0 1,1 -40,0 z " horiz-adv-x="760" unicode="."/>
<glyph d="M 80 580 m -80, 0 a 80,80 0 1,1 160,0 a 80,80 0 1,1 -160,0 z M 80 330 m -20, 0 a 20,20 0 1,1 40,0 a 20,20 0 1,1 -40,0 z M 80 80 m -80, 0 a 80,80 0 1,1 160,0 a 80,80 0 1,1 -160,0 z M 330 580 m -20, 0 a 20,20 0 1,1 40,0 a 20,20 0 1,1 -40,0 z M 330 330 m -20, 0 a 20,20 0 1,1 40,0 a 20,20 0 1,1 -40,0 z M 330 80 m -20, 0 a 20,20 0 1,1 40,0 a 20,20 0 1,1 -40,0 z " horiz-adv-x="760" unicode="k"/>
<glyph d="M 80 580 m -20, 0 a 20,20 0 1,1 40,0 a 20,20 0 1,1 -40,0 z M 80 330 m -80, 0 a 80,80 0 1,1 160,0 a 80,80 0 1,1 -160,0 z M 80 80 m -80, 0 a 80,80 0 1,1 160,0 a 80,80 0 1,1 -160,0 z M 330 580 m -20, 0 a 20,20 0 1,1 40,0 a 20,20 0 1,1 -40,0 z M 330 330 m -20, 0 a 20,20 0 1,1 40,0 a 20,20 0 1,1 -40,0 z M 330 80 m -20, 0 a 20,20 0 1,1 40,0 a 20,20 0 1,1 -40,0 z " horiz-adv-x="760" unicode=";"/>
<glyph d="M 80 580 m -80, 0 a 80,80 0 1,1 160,0 a 80,80 0 1,1 -160,0 z M 80 330 m -80, 0 a 80,80 0 1,1 160,0 a 80,80 0 1,1 -160,0 z M 80 80 m -80, 0 a 80,80 0 1,1 160,0 a 80,80 0 1,1 -160,0 z M 330 580 m -20, 0 a 20,20 0 1,1 40,0 a 20,20 0 1,1 -40,0 z M 330 330 m -20, 0 a 20,20 0 1,1 40,0 a 20,20 0 1,1 -40,0 z M 330 80 m -20, 0 a 20,20 0 1,1 40,0 a 20,20 0 1,1 -40,0 z " horiz-adv-x="760" unicode="l"/>
<glyph d="M 80 580 m -20, 0 a 20,20 0 1,1 40,0 a 20,20 0 1,1 -40,0 z M 80 330 m -20, 0 a 20,20 0 1,1 40,0 a 20,20 0 1,1 -40,0 z M 80 80 m -20, 0 a 20,20 0 1,1 40,0 a 20,20 0 1,1 -40,0 z M 330 580 m -80, 0 a 80,80 0 1,1 160,0 a 80,80 0 1,1 -160,0 z M 330 330 m -20, 0 a 20,20 0 1,1 40,0 a 20,20 0 1,1 -40,0 z M 330 80 m -20, 0 a 20,20 0 1,1 40,0 a 20,20 0 1,1 -40,0 z " horiz-adv-x="760" unicode="ù"/>
<glyph d="M 80 580 m -80, 0 a 80,80 0 1,1 160,0 a 80,80 0 1,1 -160,0 z M 80 330 m -20, 0 a 20,20 0 1,1 40,0 a 20,20 0 1,1 -40,0 z M 80 80 m -20, 0 a 20,20 0 1,1 40,0 a 20,20 0 1,1 -40,0 z M 330 580 m -80, 0 a 80,80 0 1,1 160,0 a 80,80 0 1,1 -160,0 z M 330 330 m -20, 0 a 20,20 0 1,1 40,0 a 20,20 0 1,1 -40,0 z M 330 80 m -20, 0 a 20,20 0 1,1 40,0 a 20,20 0 1,1 -40,0 z " horiz-adv-x="760" unicode="c"/>
<glyph d="M 80 580 m -20, 0 a 20,20 0 1,1 40,0 a 20,20 0 1,1 -40,0 z M 80 330 m -80, 0 a 80,80 0 1,1 160,0 a 80,80 0 1,1 -160,0 z M 80 80 m -20, 0 a 20,20 0 1,1 40,0 a 20,20 0 1,1 -40,0 z M 330 580 m -80, 0 a 80,80 0 1,1 160,0 a 80,80 0 1,1 -160,0 z M 330 330 m -20, 0 a 20,20 0 1,1 40,0 a 20,20 0 1,1 -40,0 z M 330 80 m -20, 0 a 20,20 0 1,1 40,0 a 20,20 0 1,1 -40,0 z " horiz-adv-x="760" unicode="i"/>
<glyph d="M 80 580 m -80, 0 a 80,80 0 1,1 160,0 a 80,80 0 1,1 -160,0 z M 80 330 m -80, 0 a 80,80 0 1,1 160,0 a 80,80 0 1,1 -160,0 z M 80 80 m -20, 0 a 20,20 0 1,1 40,0 a 20,20 0 1,1 -40,0 z M 330 580 m -80, 0 a 80,80 0 1,1 160,0 a 80,80 0 1,1 -160,0 z M 330 330 m -20, 0 a 20,20 0 1,1 40,0 a 20,20 0 1,1 -40,0 z M 330 80 m -20, 0 a 20,20 0 1,1 40,0 a 20,20 0 1,1 -40,0 z " horiz-adv-x="760" unicode="f"/>
<glyph d="M 80 580 m -20, 0 a 20,20 0 1,1 40,0 a 20,20 0 1,1 -40,0 z M 80 330 m -20, 0 a 20,20 0 1,1 40,0 a 20,20 0 1,1 -40,0 z M 80 80 m -80, 0 a 80,80 0 1,1 160,0 a 80,80 0 1,1 -160,0 z M 330 580 m -80, 0 a 80,80 0 1,1 160,0 a 80,80 0 1,1 -160,0 z M 330 330 m -20, 0 a 20,20 0 1,1 40,0 a 20,20 0 1,1 -40,0 z M 330 80 m -20, 0 a 20,20 0 1,1 40,0 a 20,20 0 1,1 -40,0 z " horiz-adv-x="760" unicode="^"/>
<glyph d="M 80 580 m -80, 0 a 80,80 0 1,1 160,0 a 80,80 0 1,1 -160,0 z M 80 330 m -20, 0 a 20,20 0 1,1 40,0 a 20,20 0 1,1 -40,0 z M 80 80 m -80, 0 a 80,80 0 1,1 160,0 a 80,80 0 1,1 -160,0 z M 330 580 m -80, 0 a 80,80 0 1,1 160,0 a 80,80 0 1,1 -160,0 z M 330 330 m -20, 0 a 20,20 0 1,1 40,0 a 20,20 0 1,1 -40,0 z M 330 80 m -20, 0 a 20,20 0 1,1 40,0 a 20,20 0 1,1 -40,0 z " horiz-adv-x="760" unicode="m"/>
<glyph d="M 80 580 m -20, 0 a 20,20 0 1,1 40,0 a 20,20 0 1,1 -40,0 z M 80 330 m -80, 0 a 80,80 0 1,1 160,0 a 80,80 0 1,1 -160,0 z M 80 80 m -80, 0 a 80,80 0 1,1 160,0 a 80,80 0 1,1 -160,0 z M 330 580 m -80, 0 a 80,80 0 1,1 160,0 a 80,80 0 1,1 -160,0 z M 330 330 m -20, 0 a 20,20 0 1,1 40,0 a 20,20 0 1,1 -40,0 z M 330 80 m -20, 0 a 20,20 0 1,1 40,0 a 20,20 0 1,1 -40,0 z " horiz-adv-x="760" unicode="s"/>
<glyph d="M 80 580 m -80, 0 a 80,80 0 1,1 160,0 a 80,80 0 1,1 -160,0 z M 80 330 m -80, 0 a 80,80 0 1,1 160,0 a 80,80 0 1,1 -160,0 z M 80 80 m -80, 0 a 80,80 0 1,1 160,0 a 80,80 0 1,1 -160,0 z M 330 580 m -80, 0 a 80,80 0 1,1 160,0 a 80,80 0 1,1 -160,0 z M 330 330 m -20, 0 a 20,20 0 1,1 40,0 a 20,20 0 1,1 -40,0 z M 330 80 m -20, 0 a 20,20 0 1,1 40,0 a 20,20 0 1,1 -40,0 z " horiz-adv-x="760" unicode="p"/>
<glyph d="M 80 580 m -20, 0 a 20,20 0 1,1 40,0 a 20,20 0 1,1 -40,0 z M 80 330 m -20, 0 a 20,20 0 1,1 40,0 a 20,20 0 1,1 -40,0 z M 80 80 m -20, 0 a 20,20 0 1,1 40,0 a 20,20 0 1,1 -40,0 z M 330 580 m -20, 0 a 20,20 0 1,1 40,0 a 20,20 0 1,1 -40,0 z M 330 330 m -80, 0 a 80,80 0 1,1 160,0 a 80,80 0 1,1 -160,0 z M 330 80 m -20, 0 a 20,20 0 1,1 40,0 a 20,20 0 1,1 -40,0 z " horiz-adv-x="760" unicode="ú"/>
<glyph d="M 80 580 m -80, 0 a 80,80 0 1,1 160,0 a 80,80 0 1,1 -160,0 z M 80 330 m -20, 0 a 20,20 0 1,1 40,0 a 20,20 0 1,1 -40,0 z M 80 80 m -20, 0 a 20,20 0 1,1 40,0 a 20,20 0 1,1 -40,0 z M 330 580 m -20, 0 a 20,20 0 1,1 40,0 a 20,20 0 1,1 -40,0 z M 330 330 m -80, 0 a 80,80 0 1,1 160,0 a 80,80 0 1,1 -160,0 z M 330 80 m -20, 0 a 20,20 0 1,1 40,0 a 20,20 0 1,1 -40,0 z " horiz-adv-x="760" unicode="e"/>
<glyph d="M 80 580 m -20, 0 a 20,20 0 1,1 40,0 a 20,20 0 1,1 -40,0 z M 80 330 m -80, 0 a 80,80 0 1,1 160,0 a 80,80 0 1,1 -160,0 z M 80 80 m -20, 0 a 20,20 0 1,1 40,0 a 20,20 0 1,1 -40,0 z M 330 580 m -20, 0 a 20,20 0 1,1 40,0 a 20,20 0 1,1 -40,0 z M 330 330 m -80, 0 a 80,80 0 1,1 160,0 a 80,80 0 1,1 -160,0 z M 330 80 m -20, 0 a 20,20 0 1,1 40,0 a 20,20 0 1,1 -40,0 z " horiz-adv-x="760" unicode=":"/>
<glyph d="M 80 580 m -80, 0 a 80,80 0 1,1 160,0 a 80,80 0 1,1 -160,0 z M 80 330 m -80, 0 a 80,80 0 1,1 160,0 a 80,80 0 1,1 -160,0 z M 80 80 m -20, 0 a 20,20 0 1,1 40,0 a 20,20 0 1,1 -40,0 z M 330 580 m -20, 0 a 20,20 0 1,1 40,0 a 20,20 0 1,1 -40,0 z M 330 330 m -80, 0 a 80,80 0 1,1 160,0 a 80,80 0 1,1 -160,0 z M 330 80 m -20, 0 a 20,20 0 1,1 40,0 a 20,20 0 1,1 -40,0 z " horiz-adv-x="760" unicode="h"/>
<glyph d="M 80 580 m -20, 0 a 20,20 0 1,1 40,0 a 20,20 0 1,1 -40,0 z M 80 330 m -20, 0 a 20,20 0 1,1 40,0 a 20,20 0 1,1 -40,0 z M 80 80 m -80, 0 a 80,80 0 1,1 160,0 a 80,80 0 1,1 -160,0 z M 330 580 m -20, 0 a 20,20 0 1,1 40,0 a 20,20 0 1,1 -40,0 z M 330 330 m -80, 0 a 80,80 0 1,1 160,0 a 80,80 0 1,1 -160,0 z M 330 80 m -20, 0 a 20,20 0 1,1 40,0 a 20,20 0 1,1 -40,0 z " horiz-adv-x="760" unicode="*"/>
<glyph d="M 80 580 m -80, 0 a 80,80 0 1,1 160,0 a 80,80 0 1,1 -160,0 z M 80 330 m -20, 0 a 20,20 0 1,1 40,0 a 20,20 0 1,1 -40,0 z M 80 80 m -80, 0 a 80,80 0 1,1 160,0 a 80,80 0 1,1 -160,0 z M 330 580 m -20, 0 a 20,20 0 1,1 40,0 a 20,20 0 1,1 -40,0 z M 330 330 m -80, 0 a 80,80 0 1,1 160,0 a 80,80 0 1,1 -160,0 z M 330 80 m -20, 0 a 20,20 0 1,1 40,0 a 20,20 0 1,1 -40,0 z " horiz-adv-x="760" unicode="o"/>
<glyph d="M 80 580 m -20, 0 a 20,20 0 1,1 40,0 a 20,20 0 1,1 -40,0 z M 80 330 m -80, 0 a 80,80 0 1,1 160,0 a 80,80 0 1,1 -160,0 z M 80 80 m -80, 0 a 80,80 0 1,1 160,0 a 80,80 0 1,1 -160,0 z M 330 580 m -20, 0 a 20,20 0 1,1 40,0 a 20,20 0 1,1 -40,0 z M 330 330 m -80, 0 a 80,80 0 1,1 160,0 a 80,80 0 1,1 -160,0 z M 330 80 m -20, 0 a 20,20 0 1,1 40,0 a 20,20 0 1,1 -40,0 z " horiz-adv-x="760" unicode="!"/>
<glyph d="M 80 580 m -80, 0 a 80,80 0 1,1 160,0 a 80,80 0 1,1 -160,0 z M 80 330 m -80, 0 a 80,80 0 1,1 160,0 a 80,80 0 1,1 -160,0 z M 80 80 m -80, 0 a 80,80 0 1,1 160,0 a 80,80 0 1,1 -160,0 z M 330 580 m -20, 0 a 20,20 0 1,1 40,0 a 20,20 0 1,1 -40,0 z M 330 330 m -80, 0 a 80,80 0 1,1 160,0 a 80,80 0 1,1 -160,0 z M 330 80 m -20, 0 a 20,20 0 1,1 40,0 a 20,20 0 1,1 -40,0 z " horiz-adv-x="760" unicode="r"/>
<glyph d="M 80 580 m -20, 0 a 20,20 0 1,1 40,0 a 20,20 0 1,1 -40,0 z M 80 330 m -20, 0 a 20,20 0 1,1 40,0 a 20,20 0 1,1 -40,0 z M 80 80 m -20, 0 a 20,20 0 1,1 40,0 a 20,20 0 1,1 -40,0 z M 330 580 m -80, 0 a 80,80 0 1,1 160,0 a 80,80 0 1,1 -160,0 z M 330 330 m -80, 0 a 80,80 0 1,1 160,0 a 80,80 0 1,1 -160,0 z M 330 80 m -20, 0 a 20,20 0 1,1 40,0 a 20,20 0 1,1 -40,0 z " horiz-adv-x="760" unicode="&gt;"/>
<glyph d="M 80 580 m -80, 0 a 80,80 0 1,1 160,0 a 80,80 0 1,1 -160,0 z M 80 330 m -20, 0 a 20,20 0 1,1 40,0 a 20,20 0 1,1 -40,0 z M 80 80 m -20, 0 a 20,20 0 1,1 40,0 a 20,20 0 1,1 -40,0 z M 330 580 m -80, 0 a 80,80 0 1,1 160,0 a 80,80 0 1,1 -160,0 z M 330 330 m -80, 0 a 80,80 0 1,1 160,0 a 80,80 0 1,1 -160,0 z M 330 80 m -20, 0 a 20,20 0 1,1 40,0 a 20,20 0 1,1 -40,0 z " horiz-adv-x="760" unicode="d"/>
<glyph d="M 80 580 m -20, 0 a 20,20 0 1,1 40,0 a 20,20 0 1,1 -40,0 z M 80 330 m -80, 0 a 80,80 0 1,1 160,0 a 80,80 0 1,1 -160,0 z M 80 80 m -20, 0 a 20,20 0 1,1 40,0 a 20,20 0 1,1 -40,0 z M 330 580 m -80, 0 a 80,80 0 1,1 160,0 a 80,80 0 1,1 -160,0 z M 330 330 m -80, 0 a 80,80 0 1,1 160,0 a 80,80 0 1,1 -160,0 z M 330 80 m -20, 0 a 20,20 0 1,1 40,0 a 20,20 0 1,1 -40,0 z " horiz-adv-x="760" unicode="j"/>
<glyph d="M 80 580 m -80, 0 a 80,80 0 1,1 160,0 a 80,80 0 1,1 -160,0 z M 80 330 m -80, 0 a 80,80 0 1,1 160,0 a 80,80 0 1,1 -160,0 z M 80 80 m -20, 0 a 20,20 0 1,1 40,0 a 20,20 0 1,1 -40,0 z M 330 580 m -80, 0 a 80,80 0 1,1 160,0 a 80,80 0 1,1 -160,0 z M 330 330 m -80, 0 a 80,80 0 1,1 160,0 a 80,80 0 1,1 -160,0 z M 330 80 m -20, 0 a 20,20 0 1,1 40,0 a 20,20 0 1,1 -40,0 z " horiz-adv-x="760" unicode="g"/>
<glyph d="M 80 580 m -20, 0 a 20,20 0 1,1 40,0 a 20,20 0 1,1 -40,0 z M 80 330 m -20, 0 a 20,20 0 1,1 40,0 a 20,20 0 1,1 -40,0 z M 80 80 m -80, 0 a 80,80 0 1,1 160,0 a 80,80 0 1,1 -160,0 z M 330 580 m -80, 0 a 80,80 0 1,1 160,0 a 80,80 0 1,1 -160,0 z M 330 330 m -80, 0 a 80,80 0 1,1 160,0 a 80,80 0 1,1 -160,0 z M 330 80 m -20, 0 a 20,20 0 1,1 40,0 a 20,20 0 1,1 -40,0 z " horiz-adv-x="760" unicode="@"/>
<glyph d="M 80 580 m -80, 0 a 80,80 0 1,1 160,0 a 80,80 0 1,1 -160,0 z M 80 330 m -20, 0 a 20,20 0 1,1 40,0 a 20,20 0 1,1 -40,0 z M 80 80 m -80, 0 a 80,80 0 1,1 160,0 a 80,80 0 1,1 -160,0 z M 330 580 m -80, 0 a 80,80 0 1,1 160,0 a 80,80 0 1,1 -160,0 z M 330 330 m -80, 0 a 80,80 0 1,1 160,0 a 80,80 0 1,1 -160,0 z M 330 80 m -20, 0 a 20,20 0 1,1 40,0 a 20,20 0 1,1 -40,0 z " horiz-adv-x="760" unicode="n"/>
<glyph d="M 80 580 m -20, 0 a 20,20 0 1,1 40,0 a 20,20 0 1,1 -40,0 z M 80 330 m -80, 0 a 80,80 0 1,1 160,0 a 80,80 0 1,1 -160,0 z M 80 80 m -80, 0 a 80,80 0 1,1 160,0 a 80,80 0 1,1 -160,0 z M 330 580 m -80, 0 a 80,80 0 1,1 160,0 a 80,80 0 1,1 -160,0 z M 330 330 m -80, 0 a 80,80 0 1,1 160,0 a 80,80 0 1,1 -160,0 z M 330 80 m -20, 0 a 20,20 0 1,1 40,0 a 20,20 0 1,1 -40,0 z " horiz-adv-x="760" unicode="t"/>
<glyph d="M 80 580 m -80, 0 a 80,80 0 1,1 160,0 a 80,80 0 1,1 -160,0 z M 80 330 m -80, 0 a 80,80 0 1,1 160,0 a 80,80 0 1,1 -160,0 z M 80 80 m -80, 0 a 80,80 0 1,1 160,0 a 80,80 0 1,1 -160,0 z M 330 580 m -80, 0 a 80,80 0 1,1 160,0 a 80,80 0 1,1 -160,0 z M 330 330 m -80, 0 a 80,80 0 1,1 160,0 a 80,80 0 1,1 -160,0 z M 330 80 m -20, 0 a 20,20 0 1,1 40,0 a 20,20 0 1,1 -40,0 z " horiz-adv-x="760" unicode="q"/>
<glyph d="M 80 580 m -20, 0 a 20,20 0 1,1 40,0 a 20,20 0 1,1 -40,0 z M 80 330 m -20, 0 a 20,20 0 1,1 40,0 a 20,20 0 1,1 -40,0 z M 80 80 m -20, 0 a 20,20 0 1,1 40,0 a 20,20 0 1,1 -40,0 z M 330 580 m -20, 0 a 20,20 0 1,1 40,0 a 20,20 0 1,1 -40,0 z M 330 330 m -20, 0 a 20,20 0 1,1 40,0 a 20,20 0 1,1 -40,0 z M 330 80 m -80, 0 a 80,80 0 1,1 160,0 a 80,80 0 1,1 -160,0 z " horiz-adv-x="760" unicode="'"/>
<glyph d="M 80 580 m -80, 0 a 80,80 0 1,1 160,0 a 80,80 0 1,1 -160,0 z M 80 330 m -20, 0 a 20,20 0 1,1 40,0 a 20,20 0 1,1 -40,0 z M 80 80 m -20, 0 a 20,20 0 1,1 40,0 a 20,20 0 1,1 -40,0 z M 330 580 m -20, 0 a 20,20 0 1,1 40,0 a 20,20 0 1,1 -40,0 z M 330 330 m -20, 0 a 20,20 0 1,1 40,0 a 20,20 0 1,1 -40,0 z M 330 80 m -80, 0 a 80,80 0 1,1 160,0 a 80,80 0 1,1 -160,0 z " horiz-adv-x="760" unicode="1"/>
<glyph d="M 80 580 m -20, 0 a 20,20 0 1,1 40,0 a 20,20 0 1,1 -40,0 z M 80 330 m -80, 0 a 80,80 0 1,1 160,0 a 80,80 0 1,1 -160,0 z M 80 80 m -20, 0 a 20,20 0 1,1 40,0 a 20,20 0 1,1 -40,0 z M 330 580 m -20, 0 a 20,20 0 1,1 40,0 a 20,20 0 1,1 -40,0 z M 330 330 m -20, 0 a 20,20 0 1,1 40,0 a 20,20 0 1,1 -40,0 z M 330 80 m -80, 0 a 80,80 0 1,1 160,0 a 80,80 0 1,1 -160,0 z " horiz-adv-x="760" unicode="?"/>
<glyph d="M 80 580 m -80, 0 a 80,80 0 1,1 160,0 a 80,80 0 1,1 -160,0 z M 80 330 m -80, 0 a 80,80 0 1,1 160,0 a 80,80 0 1,1 -160,0 z M 80 80 m -20, 0 a 20,20 0 1,1 40,0 a 20,20 0 1,1 -40,0 z M 330 580 m -20, 0 a 20,20 0 1,1 40,0 a 20,20 0 1,1 -40,0 z M 330 330 m -20, 0 a 20,20 0 1,1 40,0 a 20,20 0 1,1 -40,0 z M 330 80 m -80, 0 a 80,80 0 1,1 160,0 a 80,80 0 1,1 -160,0 z " horiz-adv-x="760" unicode="2"/>
<glyph d="M 80 580 m -20, 0 a 20,20 0 1,1 40,0 a 20,20 0 1,1 -40,0 z M 80 330 m -20, 0 a 20,20 0 1,1 40,0 a 20,20 0 1,1 -40,0 z M 80 80 m -80, 0 a 80,80 0 1,1 160,0 a 80,80 0 1,1 -160,0 z M 330 580 m -20, 0 a 20,20 0 1,1 40,0 a 20,20 0 1,1 -40,0 z M 330 330 m -20, 0 a 20,20 0 1,1 40,0 a 20,20 0 1,1 -40,0 z M 330 80 m -80, 0 a 80,80 0 1,1 160,0 a 80,80 0 1,1 -160,0 z " horiz-adv-x="760" unicode="-"/>
<glyph d="M 80 580 m -80, 0 a 80,80 0 1,1 160,0 a 80,80 0 1,1 -160,0 z M 80 330 m -20, 0 a 20,20 0 1,1 40,0 a 20,20 0 1,1 -40,0 z M 80 80 m -80, 0 a 80,80 0 1,1 160,0 a 80,80 0 1,1 -160,0 z M 330 580 m -20, 0 a 20,20 0 1,1 40,0 a 20,20 0 1,1 -40,0 z M 330 330 m -20, 0 a 20,20 0 1,1 40,0 a 20,20 0 1,1 -40,0 z M 330 80 m -80, 0 a 80,80 0 1,1 160,0 a 80,80 0 1,1 -160,0 z " horiz-adv-x="760" unicode="u"/>
<glyph d="M 80 580 m -20, 0 a 20,20 0 1,1 40,0 a 20,20 0 1,1 -40,0 z M 80 330 m -80, 0 a 80,80 0 1,1 160,0 a 80,80 0 1,1 -160,0 z M 80 80 m -80, 0 a 80,80 0 1,1 160,0 a 80,80 0 1,1 -160,0 z M 330 580 m -20, 0 a 20,20 0 1,1 40,0 a 20,20 0 1,1 -40,0 z M 330 330 m -20, 0 a 20,20 0 1,1 40,0 a 20,20 0 1,1 -40,0 z M 330 80 m -80, 0 a 80,80 0 1,1 160,0 a 80,80 0 1,1 -160,0 z " horiz-adv-x="760" unicode="("/>
<glyph d="M 80 580 m -80, 0 a 80,80 0 1,1 160,0 a 80,80 0 1,1 -160,0 z M 80 330 m -80, 0 a 80,80 0 1,1 160,0 a 80,80 0 1,1 -160,0 z M 80 80 m -80, 0 a 80,80 0 1,1 160,0 a 80,80 0 1,1 -160,0 z M 330 580 m -20, 0 a 20,20 0 1,1 40,0 a 20,20 0 1,1 -40,0 z M 330 330 m -20, 0 a 20,20 0 1,1 40,0 a 20,20 0 1,1 -40,0 z M 330 80 m -80, 0 a 80,80 0 1,1 160,0 a 80,80 0 1,1 -160,0 z " horiz-adv-x="760" unicode="v"/>
<glyph d="M 80 580 m -20, 0 a 20,20 0 1,1 40,0 a 20,20 0 1,1 -40,0 z M 80 330 m -20, 0 a 20,20 0 1,1 40,0 a 20,20 0 1,1 -40,0 z M 80 80 m -20, 0 a 20,20 0 1,1 40,0 a 20,20 0 1,1 -40,0 z M 330 580 m -80, 0 a 80,80 0 1,1 160,0 a 80,80 0 1,1 -160,0 z M 330 330 m -20, 0 a 20,20 0 1,1 40,0 a 20,20 0 1,1 -40,0 z M 330 80 m -80, 0 a 80,80 0 1,1 160,0 a 80,80 0 1,1 -160,0 z " horiz-adv-x="760" unicode="°"/>
<glyph d="M 80 580 m -80, 0 a 80,80 0 1,1 160,0 a 80,80 0 1,1 -160,0 z M 80 330 m -20, 0 a 20,20 0 1,1 40,0 a 20,20 0 1,1 -40,0 z M 80 80 m -20, 0 a 20,20 0 1,1 40,0 a 20,20 0 1,1 -40,0 z M 330 580 m -80, 0 a 80,80 0 1,1 160,0 a 80,80 0 1,1 -160,0 z M 330 330 m -20, 0 a 20,20 0 1,1 40,0 a 20,20 0 1,1 -40,0 z M 330 80 m -80, 0 a 80,80 0 1,1 160,0 a 80,80 0 1,1 -160,0 z " horiz-adv-x="760" unicode="3"/>
<glyph d="M 80 580 m -20, 0 a 20,20 0 1,1 40,0 a 20,20 0 1,1 -40,0 z M 80 330 m -80, 0 a 80,80 0 1,1 160,0 a 80,80 0 1,1 -160,0 z M 80 80 m -20, 0 a 20,20 0 1,1 40,0 a 20,20 0 1,1 -40,0 z M 330 580 m -80, 0 a 80,80 0 1,1 160,0 a 80,80 0 1,1 -160,0 z M 330 330 m -20, 0 a 20,20 0 1,1 40,0 a 20,20 0 1,1 -40,0 z M 330 80 m -80, 0 a 80,80 0 1,1 160,0 a 80,80 0 1,1 -160,0 z " horiz-adv-x="760" unicode="9"/>
<glyph d="M 80 580 m -80, 0 a 80,80 0 1,1 160,0 a 80,80 0 1,1 -160,0 z M 80 330 m -80, 0 a 80,80 0 1,1 160,0 a 80,80 0 1,1 -160,0 z M 80 80 m -20, 0 a 20,20 0 1,1 40,0 a 20,20 0 1,1 -40,0 z M 330 580 m -80, 0 a 80,80 0 1,1 160,0 a 80,80 0 1,1 -160,0 z M 330 330 m -20, 0 a 20,20 0 1,1 40,0 a 20,20 0 1,1 -40,0 z M 330 80 m -80, 0 a 80,80 0 1,1 160,0 a 80,80 0 1,1 -160,0 z " horiz-adv-x="760" unicode="6"/>
<glyph d="M 80 580 m -20, 0 a 20,20 0 1,1 40,0 a 20,20 0 1,1 -40,0 z M 80 330 m -20, 0 a 20,20 0 1,1 40,0 a 20,20 0 1,1 -40,0 z M 80 80 m -80, 0 a 80,80 0 1,1 160,0 a 80,80 0 1,1 -160,0 z M 330 580 m -80, 0 a 80,80 0 1,1 160,0 a 80,80 0 1,1 -160,0 z M 330 330 m -20, 0 a 20,20 0 1,1 40,0 a 20,20 0 1,1 -40,0 z M 330 80 m -80, 0 a 80,80 0 1,1 160,0 a 80,80 0 1,1 -160,0 z " horiz-adv-x="760" unicode="#"/>
<glyph d="M 80 580 m -80, 0 a 80,80 0 1,1 160,0 a 80,80 0 1,1 -160,0 z M 80 330 m -20, 0 a 20,20 0 1,1 40,0 a 20,20 0 1,1 -40,0 z M 80 80 m -80, 0 a 80,80 0 1,1 160,0 a 80,80 0 1,1 -160,0 z M 330 580 m -80, 0 a 80,80 0 1,1 160,0 a 80,80 0 1,1 -160,0 z M 330 330 m -20, 0 a 20,20 0 1,1 40,0 a 20,20 0 1,1 -40,0 z M 330 80 m -80, 0 a 80,80 0 1,1 160,0 a 80,80 0 1,1 -160,0 z " horiz-adv-x="760" unicode="x"/>
<glyph d="M 80 580 m -20, 0 a 20,20 0 1,1 40,0 a 20,20 0 1,1 -40,0 z M 80 330 m -80, 0 a 80,80 0 1,1 160,0 a 80,80 0 1,1 -160,0 z M 80 80 m -80, 0 a 80,80 0 1,1 160,0 a 80,80 0 1,1 -160,0 z M 330 580 m -80, 0 a 80,80 0 1,1 160,0 a 80,80 0 1,1 -160,0 z M 330 330 m -20, 0 a 20,20 0 1,1 40,0 a 20,20 0 1,1 -40,0 z M 330 80 m -80, 0 a 80,80 0 1,1 160,0 a 80,80 0 1,1 -160,0 z " horiz-adv-x="760" unicode="\"/>
<glyph d="M 80 580 m -80, 0 a 80,80 0 1,1 160,0 a 80,80 0 1,1 -160,0 z M 80 330 m -80, 0 a 80,80 0 1,1 160,0 a 80,80 0 1,1 -160,0 z M 80 80 m -80, 0 a 80,80 0 1,1 160,0 a 80,80 0 1,1 -160,0 z M 330 580 m -80, 0 a 80,80 0 1,1 160,0 a 80,80 0 1,1 -160,0 z M 330 330 m -20, 0 a 20,20 0 1,1 40,0 a 20,20 0 1,1 -40,0 z M 330 80 m -80, 0 a 80,80 0 1,1 160,0 a 80,80 0 1,1 -160,0 z " horiz-adv-x="760" unicode="%"/>
<glyph d="M 80 580 m -20, 0 a 20,20 0 1,1 40,0 a 20,20 0 1,1 -40,0 z M 80 330 m -20, 0 a 20,20 0 1,1 40,0 a 20,20 0 1,1 -40,0 z M 80 80 m -20, 0 a 20,20 0 1,1 40,0 a 20,20 0 1,1 -40,0 z M 330 580 m -20, 0 a 20,20 0 1,1 40,0 a 20,20 0 1,1 -40,0 z M 330 330 m -80, 0 a 80,80 0 1,1 160,0 a 80,80 0 1,1 -160,0 z M 330 80 m -80, 0 a 80,80 0 1,1 160,0 a 80,80 0 1,1 -160,0 z " horiz-adv-x="760" unicode="&lt;"/>
<glyph d="M 80 580 m -80, 0 a 80,80 0 1,1 160,0 a 80,80 0 1,1 -160,0 z M 80 330 m -20, 0 a 20,20 0 1,1 40,0 a 20,20 0 1,1 -40,0 z M 80 80 m -20, 0 a 20,20 0 1,1 40,0 a 20,20 0 1,1 -40,0 z M 330 580 m -20, 0 a 20,20 0 1,1 40,0 a 20,20 0 1,1 -40,0 z M 330 330 m -80, 0 a 80,80 0 1,1 160,0 a 80,80 0 1,1 -160,0 z M 330 80 m -80, 0 a 80,80 0 1,1 160,0 a 80,80 0 1,1 -160,0 z " horiz-adv-x="760" unicode="5"/>
<glyph d="M 80 580 m -20, 0 a 20,20 0 1,1 40,0 a 20,20 0 1,1 -40,0 z M 80 330 m -80, 0 a 80,80 0 1,1 160,0 a 80,80 0 1,1 -160,0 z M 80 80 m -20, 0 a 20,20 0 1,1 40,0 a 20,20 0 1,1 -40,0 z M 330 580 m -20, 0 a 20,20 0 1,1 40,0 a 20,20 0 1,1 -40,0 z M 330 330 m -80, 0 a 80,80 0 1,1 160,0 a 80,80 0 1,1 -160,0 z M 330 80 m -80, 0 a 80,80 0 1,1 160,0 a 80,80 0 1,1 -160,0 z " horiz-adv-x="760" unicode="/"/>
<glyph d="M 80 580 m -80, 0 a 80,80 0 1,1 160,0 a 80,80 0 1,1 -160,0 z M 80 330 m -80, 0 a 80,80 0 1,1 160,0 a 80,80 0 1,1 -160,0 z M 80 80 m -20, 0 a 20,20 0 1,1 40,0 a 20,20 0 1,1 -40,0 z M 330 580 m -20, 0 a 20,20 0 1,1 40,0 a 20,20 0 1,1 -40,0 z M 330 330 m -80, 0 a 80,80 0 1,1 160,0 a 80,80 0 1,1 -160,0 z M 330 80 m -80, 0 a 80,80 0 1,1 160,0 a 80,80 0 1,1 -160,0 z " horiz-adv-x="760" unicode="8"/>
<glyph d="M 80 580 m -20, 0 a 20,20 0 1,1 40,0 a 20,20 0 1,1 -40,0 z M 80 330 m -20, 0 a 20,20 0 1,1 40,0 a 20,20 0 1,1 -40,0 z M 80 80 m -80, 0 a 80,80 0 1,1 160,0 a 80,80 0 1,1 -160,0 z M 330 580 m -20, 0 a 20,20 0 1,1 40,0 a 20,20 0 1,1 -40,0 z M 330 330 m -80, 0 a 80,80 0 1,1 160,0 a 80,80 0 1,1 -160,0 z M 330 80 m -80, 0 a 80,80 0 1,1 160,0 a 80,80 0 1,1 -160,0 z " horiz-adv-x="760" unicode=")"/>
<glyph d="M 80 580 m -80, 0 a 80,80 0 1,1 160,0 a 80,80 0 1,1 -160,0 z M 80 330 m -20, 0 a 20,20 0 1,1 40,0 a 20,20 0 1,1 -40,0 z M 80 80 m -80, 0 a 80,80 0 1,1 160,0 a 80,80 0 1,1 -160,0 z M 330 580 m -20, 0 a 20,20 0 1,1 40,0 a 20,20 0 1,1 -40,0 z M 330 330 m -80, 0 a 80,80 0 1,1 160,0 a 80,80 0 1,1 -160,0 z M 330 80 m -80, 0 a 80,80 0 1,1 160,0 a 80,80 0 1,1 -160,0 z " horiz-adv-x="760" unicode="z"/>
<glyph d="M 80 580 m -20, 0 a 20,20 0 1,1 40,0 a 20,20 0 1,1 -40,0 z M 80 330 m -80, 0 a 80,80 0 1,1 160,0 a 80,80 0 1,1 -160,0 z M 80 80 m -80, 0 a 80,80 0 1,1 160,0 a 80,80 0 1,1 -160,0 z M 330 580 m -20, 0 a 20,20 0 1,1 40,0 a 20,20 0 1,1 -40,0 z M 330 330 m -80, 0 a 80,80 0 1,1 160,0 a 80,80 0 1,1 -160,0 z M 330 80 m -80, 0 a 80,80 0 1,1 160,0 a 80,80 0 1,1 -160,0 z " horiz-adv-x="760" unicode="&quot;"/>
<glyph d="M 80 580 m -80, 0 a 80,80 0 1,1 160,0 a 80,80 0 1,1 -160,0 z M 80 330 m -80, 0 a 80,80 0 1,1 160,0 a 80,80 0 1,1 -160,0 z M 80 80 m -80, 0 a 80,80 0 1,1 160,0 a 80,80 0 1,1 -160,0 z M 330 580 m -20, 0 a 20,20 0 1,1 40,0 a 20,20 0 1,1 -40,0 z M 330 330 m -80, 0 a 80,80 0 1,1 160,0 a 80,80 0 1,1 -160,0 z M 330 80 m -80, 0 a 80,80 0 1,1 160,0 a 80,80 0 1,1 -160,0 z " horiz-adv-x="760" unicode="["/>
<glyph d="M 80 580 m -20, 0 a 20,20 0 1,1 40,0 a 20,20 0 1,1 -40,0 z M 80 330 m -20, 0 a 20,20 0 1,1 40,0 a 20,20 0 1,1 -40,0 z M 80 80 m -20, 0 a 20,20 0 1,1 40,0 a 20,20 0 1,1 -40,0 z M 330 580 m -80, 0 a 80,80 0 1,1 160,0 a 80,80 0 1,1 -160,0 z M 330 330 m -80, 0 a 80,80 0 1,1 160,0 a 80,80 0 1,1 -160,0 z M 330 80 m -80, 0 a 80,80 0 1,1 160,0 a 80,80 0 1,1 -160,0 z " horiz-adv-x="760" unicode="$"/>
<glyph d="M 80 580 m -80, 0 a 80,80 0 1,1 160,0 a 80,80 0 1,1 -160,0 z M 80 330 m -20, 0 a 20,20 0 1,1 40,0 a 20,20 0 1,1 -40,0 z M 80 80 m -20, 0 a 20,20 0 1,1 40,0 a 20,20 0 1,1 -40,0 z M 330 580 m -80, 0 a 80,80 0 1,1 160,0 a 80,80 0 1,1 -160,0 z M 330 330 m -80, 0 a 80,80 0 1,1 160,0 a 80,80 0 1,1 -160,0 z M 330 80 m -80, 0 a 80,80 0 1,1 160,0 a 80,80 0 1,1 -160,0 z " horiz-adv-x="760" unicode="4"/>
<glyph d="M 80 580 m -20, 0 a 20,20 0 1,1 40,0 a 20,20 0 1,1 -40,0 z M 80 330 m -80, 0 a 80,80 0 1,1 160,0 a 80,80 0 1,1 -160,0 z M 80 80 m -20, 0 a 20,20 0 1,1 40,0 a 20,20 0 1,1 -40,0 z M 330 580 m -80, 0 a 80,80 0 1,1 160,0 a 80,80 0 1,1 -160,0 z M 330 330 m -80, 0 a 80,80 0 1,1 160,0 a 80,80 0 1,1 -160,0 z M 330 80 m -80, 0 a 80,80 0 1,1 160,0 a 80,80 0 1,1 -160,0 z " horiz-adv-x="760" unicode="w"/>
<glyph d="M 80 580 m -80, 0 a 80,80 0 1,1 160,0 a 80,80 0 1,1 -160,0 z M 80 330 m -80, 0 a 80,80 0 1,1 160,0 a 80,80 0 1,1 -160,0 z M 80 80 m -20, 0 a 20,20 0 1,1 40,0 a 20,20 0 1,1 -40,0 z M 330 580 m -80, 0 a 80,80 0 1,1 160,0 a 80,80 0 1,1 -160,0 z M 330 330 m -80, 0 a 80,80 0 1,1 160,0 a 80,80 0 1,1 -160,0 z M 330 80 m -80, 0 a 80,80 0 1,1 160,0 a 80,80 0 1,1 -160,0 z " horiz-adv-x="760" unicode="7"/>
<glyph d="M 80 580 m -20, 0 a 20,20 0 1,1 40,0 a 20,20 0 1,1 -40,0 z M 80 330 m -20, 0 a 20,20 0 1,1 40,0 a 20,20 0 1,1 -40,0 z M 80 80 m -80, 0 a 80,80 0 1,1 160,0 a 80,80 0 1,1 -160,0 z M 330 580 m -80, 0 a 80,80 0 1,1 160,0 a 80,80 0 1,1 -160,0 z M 330 330 m -80, 0 a 80,80 0 1,1 160,0 a 80,80 0 1,1 -160,0 z M 330 80 m -80, 0 a 80,80 0 1,1 160,0 a 80,80 0 1,1 -160,0 z " horiz-adv-x="760" unicode="0"/>
<glyph d="M 80 580 m -80, 0 a 80,80 0 1,1 160,0 a 80,80 0 1,1 -160,0 z M 80 330 m -20, 0 a 20,20 0 1,1 40,0 a 20,20 0 1,1 -40,0 z M 80 80 m -80, 0 a 80,80 0 1,1 160,0 a 80,80 0 1,1 -160,0 z M 330 580 m -80, 0 a 80,80 0 1,1 160,0 a 80,80 0 1,1 -160,0 z M 330 330 m -80, 0 a 80,80 0 1,1 160,0 a 80,80 0 1,1 -160,0 z M 330 80 m -80, 0 a 80,80 0 1,1 160,0 a 80,80 0 1,1 -160,0 z " horiz-adv-x="760" unicode="y"/>
<glyph d="M 80 580 m -20, 0 a 20,20 0 1,1 40,0 a 20,20 0 1,1 -40,0 z M 80 330 m -80, 0 a 80,80 0 1,1 160,0 a 80,80 0 1,1 -160,0 z M 80 80 m -80, 0 a 80,80 0 1,1 160,0 a 80,80 0 1,1 -160,0 z M 330 580 m -80, 0 a 80,80 0 1,1 160,0 a 80,80 0 1,1 -160,0 z M 330 330 m -80, 0 a 80,80 0 1,1 160,0 a 80,80 0 1,1 -160,0 z M 330 80 m -80, 0 a 80,80 0 1,1 160,0 a 80,80 0 1,1 -160,0 z " horiz-adv-x="760" unicode="]"/>
<glyph d="M 80 580 m -80, 0 a 80,80 0 1,1 160,0 a 80,80 0 1,1 -160,0 z M 80 330 m -80, 0 a 80,80 0 1,1 160,0 a 80,80 0 1,1 -160,0 z M 80 80 m -80, 0 a 80,80 0 1,1 160,0 a 80,80 0 1,1 -160,0 z M 330 580 m -80, 0 a 80,80 0 1,1 160,0 a 80,80 0 1,1 -160,0 z M 330 330 m -80, 0 a 80,80 0 1,1 160,0 a 80,80 0 1,1 -160,0 z M 330 80 m -80, 0 a 80,80 0 1,1 160,0 a 80,80 0 1,1 -160,0 z " horiz-adv-x="760" unicode="&amp;"/>
</font>
</defs>
</svg>
