<?xml version="1.0" encoding="UTF-8" standalone="no"?>
<svg>
<metadata>built for 'DuxTbFr2007' braille table on Sun Dec 07 11:53:12 CET 2014</metadata>
<defs>
<font horiz-adv-x="625" id="Braille-DuxTbFr2007" vert-adv-y="">
<font-face ascent="630" descent="-250" font-family="Braille" font-stretch="normal" font-weight="normal" units-per-em="1024"/>
<missing-glyph/>
<glyph d="M 65 565 m -16, 0 a 16,16 0 1,1 32,0 a 16,16 0 1,1 -32,0 z M 65 315 m -16, 0 a 16,16 0 1,1 32,0 a 16,16 0 1,1 -32,0 z M 65 65 m -16, 0 a 16,16 0 1,1 32,0 a 16,16 0 1,1 -32,0 z M 315 565 m -16, 0 a 16,16 0 1,1 32,0 a 16,16 0 1,1 -32,0 z M 315 315 m -16, 0 a 16,16 0 1,1 32,0 a 16,16 0 1,1 -32,0 z M 315 65 m -16, 0 a 16,16 0 1,1 32,0 a 16,16 0 1,1 -32,0 z " horiz-adv-x="625" unicode=" "/>
<glyph d="M 65 565 m -65, 0 a 65,65 0 1,1 130,0 a 65,65 0 1,1 -130,0 z M 65 315 m -16, 0 a 16,16 0 1,1 32,0 a 16,16 0 1,1 -32,0 z M 65 65 m -16, 0 a 16,16 0 1,1 32,0 a 16,16 0 1,1 -32,0 z M 315 565 m -16, 0 a 16,16 0 1,1 32,0 a 16,16 0 1,1 -32,0 z M 315 315 m -16, 0 a 16,16 0 1,1 32,0 a 16,16 0 1,1 -32,0 z M 315 65 m -16, 0 a 16,16 0 1,1 32,0 a 16,16 0 1,1 -32,0 z " horiz-adv-x="625" unicode="a"/>
<glyph d="M 65 565 m -16, 0 a 16,16 0 1,1 32,0 a 16,16 0 1,1 -32,0 z M 65 315 m -65, 0 a 65,65 0 1,1 130,0 a 65,65 0 1,1 -130,0 z M 65 65 m -16, 0 a 16,16 0 1,1 32,0 a 16,16 0 1,1 -32,0 z M 315 565 m -16, 0 a 16,16 0 1,1 32,0 a 16,16 0 1,1 -32,0 z M 315 315 m -16, 0 a 16,16 0 1,1 32,0 a 16,16 0 1,1 -32,0 z M 315 65 m -16, 0 a 16,16 0 1,1 32,0 a 16,16 0 1,1 -32,0 z " horiz-adv-x="625" unicode=","/>
<glyph d="M 65 565 m -65, 0 a 65,65 0 1,1 130,0 a 65,65 0 1,1 -130,0 z M 65 315 m -65, 0 a 65,65 0 1,1 130,0 a 65,65 0 1,1 -130,0 z M 65 65 m -16, 0 a 16,16 0 1,1 32,0 a 16,16 0 1,1 -32,0 z M 315 565 m -16, 0 a 16,16 0 1,1 32,0 a 16,16 0 1,1 -32,0 z M 315 315 m -16, 0 a 16,16 0 1,1 32,0 a 16,16 0 1,1 -32,0 z M 315 65 m -16, 0 a 16,16 0 1,1 32,0 a 16,16 0 1,1 -32,0 z " horiz-adv-x="625" unicode="b"/>
<glyph d="M 65 565 m -16, 0 a 16,16 0 1,1 32,0 a 16,16 0 1,1 -32,0 z M 65 315 m -16, 0 a 16,16 0 1,1 32,0 a 16,16 0 1,1 -32,0 z M 65 65 m -65, 0 a 65,65 0 1,1 130,0 a 65,65 0 1,1 -130,0 z M 315 565 m -16, 0 a 16,16 0 1,1 32,0 a 16,16 0 1,1 -32,0 z M 315 315 m -16, 0 a 16,16 0 1,1 32,0 a 16,16 0 1,1 -32,0 z M 315 65 m -16, 0 a 16,16 0 1,1 32,0 a 16,16 0 1,1 -32,0 z " horiz-adv-x="625" unicode="'"/>
<glyph d="M 65 565 m -65, 0 a 65,65 0 1,1 130,0 a 65,65 0 1,1 -130,0 z M 65 315 m -16, 0 a 16,16 0 1,1 32,0 a 16,16 0 1,1 -32,0 z M 65 65 m -65, 0 a 65,65 0 1,1 130,0 a 65,65 0 1,1 -130,0 z M 315 565 m -16, 0 a 16,16 0 1,1 32,0 a 16,16 0 1,1 -32,0 z M 315 315 m -16, 0 a 16,16 0 1,1 32,0 a 16,16 0 1,1 -32,0 z M 315 65 m -16, 0 a 16,16 0 1,1 32,0 a 16,16 0 1,1 -32,0 z " horiz-adv-x="625" unicode="k"/>
<glyph d="M 65 565 m -16, 0 a 16,16 0 1,1 32,0 a 16,16 0 1,1 -32,0 z M 65 315 m -65, 0 a 65,65 0 1,1 130,0 a 65,65 0 1,1 -130,0 z M 65 65 m -65, 0 a 65,65 0 1,1 130,0 a 65,65 0 1,1 -130,0 z M 315 565 m -16, 0 a 16,16 0 1,1 32,0 a 16,16 0 1,1 -32,0 z M 315 315 m -16, 0 a 16,16 0 1,1 32,0 a 16,16 0 1,1 -32,0 z M 315 65 m -16, 0 a 16,16 0 1,1 32,0 a 16,16 0 1,1 -32,0 z " horiz-adv-x="625" unicode=";"/>
<glyph d="M 65 565 m -65, 0 a 65,65 0 1,1 130,0 a 65,65 0 1,1 -130,0 z M 65 315 m -65, 0 a 65,65 0 1,1 130,0 a 65,65 0 1,1 -130,0 z M 65 65 m -65, 0 a 65,65 0 1,1 130,0 a 65,65 0 1,1 -130,0 z M 315 565 m -16, 0 a 16,16 0 1,1 32,0 a 16,16 0 1,1 -32,0 z M 315 315 m -16, 0 a 16,16 0 1,1 32,0 a 16,16 0 1,1 -32,0 z M 315 65 m -16, 0 a 16,16 0 1,1 32,0 a 16,16 0 1,1 -32,0 z " horiz-adv-x="625" unicode="l"/>
<glyph d="M 65 565 m -16, 0 a 16,16 0 1,1 32,0 a 16,16 0 1,1 -32,0 z M 65 315 m -16, 0 a 16,16 0 1,1 32,0 a 16,16 0 1,1 -32,0 z M 65 65 m -16, 0 a 16,16 0 1,1 32,0 a 16,16 0 1,1 -32,0 z M 315 565 m -65, 0 a 65,65 0 1,1 130,0 a 65,65 0 1,1 -130,0 z M 315 315 m -16, 0 a 16,16 0 1,1 32,0 a 16,16 0 1,1 -32,0 z M 315 65 m -16, 0 a 16,16 0 1,1 32,0 a 16,16 0 1,1 -32,0 z " horiz-adv-x="625" unicode="^"/>
<glyph d="M 65 565 m -65, 0 a 65,65 0 1,1 130,0 a 65,65 0 1,1 -130,0 z M 65 315 m -16, 0 a 16,16 0 1,1 32,0 a 16,16 0 1,1 -32,0 z M 65 65 m -16, 0 a 16,16 0 1,1 32,0 a 16,16 0 1,1 -32,0 z M 315 565 m -65, 0 a 65,65 0 1,1 130,0 a 65,65 0 1,1 -130,0 z M 315 315 m -16, 0 a 16,16 0 1,1 32,0 a 16,16 0 1,1 -32,0 z M 315 65 m -16, 0 a 16,16 0 1,1 32,0 a 16,16 0 1,1 -32,0 z " horiz-adv-x="625" unicode="c"/>
<glyph d="M 65 565 m -16, 0 a 16,16 0 1,1 32,0 a 16,16 0 1,1 -32,0 z M 65 315 m -65, 0 a 65,65 0 1,1 130,0 a 65,65 0 1,1 -130,0 z M 65 65 m -16, 0 a 16,16 0 1,1 32,0 a 16,16 0 1,1 -32,0 z M 315 565 m -65, 0 a 65,65 0 1,1 130,0 a 65,65 0 1,1 -130,0 z M 315 315 m -16, 0 a 16,16 0 1,1 32,0 a 16,16 0 1,1 -32,0 z M 315 65 m -16, 0 a 16,16 0 1,1 32,0 a 16,16 0 1,1 -32,0 z " horiz-adv-x="625" unicode="i"/>
<glyph d="M 65 565 m -65, 0 a 65,65 0 1,1 130,0 a 65,65 0 1,1 -130,0 z M 65 315 m -65, 0 a 65,65 0 1,1 130,0 a 65,65 0 1,1 -130,0 z M 65 65 m -16, 0 a 16,16 0 1,1 32,0 a 16,16 0 1,1 -32,0 z M 315 565 m -65, 0 a 65,65 0 1,1 130,0 a 65,65 0 1,1 -130,0 z M 315 315 m -16, 0 a 16,16 0 1,1 32,0 a 16,16 0 1,1 -32,0 z M 315 65 m -16, 0 a 16,16 0 1,1 32,0 a 16,16 0 1,1 -32,0 z " horiz-adv-x="625" unicode="f"/>
<glyph d="M 65 565 m -16, 0 a 16,16 0 1,1 32,0 a 16,16 0 1,1 -32,0 z M 65 315 m -16, 0 a 16,16 0 1,1 32,0 a 16,16 0 1,1 -32,0 z M 65 65 m -65, 0 a 65,65 0 1,1 130,0 a 65,65 0 1,1 -130,0 z M 315 565 m -65, 0 a 65,65 0 1,1 130,0 a 65,65 0 1,1 -130,0 z M 315 315 m -16, 0 a 16,16 0 1,1 32,0 a 16,16 0 1,1 -32,0 z M 315 65 m -16, 0 a 16,16 0 1,1 32,0 a 16,16 0 1,1 -32,0 z " horiz-adv-x="625" unicode="/"/>
<glyph d="M 65 565 m -65, 0 a 65,65 0 1,1 130,0 a 65,65 0 1,1 -130,0 z M 65 315 m -16, 0 a 16,16 0 1,1 32,0 a 16,16 0 1,1 -32,0 z M 65 65 m -65, 0 a 65,65 0 1,1 130,0 a 65,65 0 1,1 -130,0 z M 315 565 m -65, 0 a 65,65 0 1,1 130,0 a 65,65 0 1,1 -130,0 z M 315 315 m -16, 0 a 16,16 0 1,1 32,0 a 16,16 0 1,1 -32,0 z M 315 65 m -16, 0 a 16,16 0 1,1 32,0 a 16,16 0 1,1 -32,0 z " horiz-adv-x="625" unicode="m"/>
<glyph d="M 65 565 m -16, 0 a 16,16 0 1,1 32,0 a 16,16 0 1,1 -32,0 z M 65 315 m -65, 0 a 65,65 0 1,1 130,0 a 65,65 0 1,1 -130,0 z M 65 65 m -65, 0 a 65,65 0 1,1 130,0 a 65,65 0 1,1 -130,0 z M 315 565 m -65, 0 a 65,65 0 1,1 130,0 a 65,65 0 1,1 -130,0 z M 315 315 m -16, 0 a 16,16 0 1,1 32,0 a 16,16 0 1,1 -32,0 z M 315 65 m -16, 0 a 16,16 0 1,1 32,0 a 16,16 0 1,1 -32,0 z " horiz-adv-x="625" unicode="s"/>
<glyph d="M 65 565 m -65, 0 a 65,65 0 1,1 130,0 a 65,65 0 1,1 -130,0 z M 65 315 m -65, 0 a 65,65 0 1,1 130,0 a 65,65 0 1,1 -130,0 z M 65 65 m -65, 0 a 65,65 0 1,1 130,0 a 65,65 0 1,1 -130,0 z M 315 565 m -65, 0 a 65,65 0 1,1 130,0 a 65,65 0 1,1 -130,0 z M 315 315 m -16, 0 a 16,16 0 1,1 32,0 a 16,16 0 1,1 -32,0 z M 315 65 m -16, 0 a 16,16 0 1,1 32,0 a 16,16 0 1,1 -32,0 z " horiz-adv-x="625" unicode="p"/>
<glyph d="M 65 565 m -16, 0 a 16,16 0 1,1 32,0 a 16,16 0 1,1 -32,0 z M 65 315 m -16, 0 a 16,16 0 1,1 32,0 a 16,16 0 1,1 -32,0 z M 65 65 m -16, 0 a 16,16 0 1,1 32,0 a 16,16 0 1,1 -32,0 z M 315 565 m -16, 0 a 16,16 0 1,1 32,0 a 16,16 0 1,1 -32,0 z M 315 315 m -65, 0 a 65,65 0 1,1 130,0 a 65,65 0 1,1 -130,0 z M 315 65 m -16, 0 a 16,16 0 1,1 32,0 a 16,16 0 1,1 -32,0 z " horiz-adv-x="625" unicode="´"/>
<glyph d="M 65 565 m -65, 0 a 65,65 0 1,1 130,0 a 65,65 0 1,1 -130,0 z M 65 315 m -16, 0 a 16,16 0 1,1 32,0 a 16,16 0 1,1 -32,0 z M 65 65 m -16, 0 a 16,16 0 1,1 32,0 a 16,16 0 1,1 -32,0 z M 315 565 m -16, 0 a 16,16 0 1,1 32,0 a 16,16 0 1,1 -32,0 z M 315 315 m -65, 0 a 65,65 0 1,1 130,0 a 65,65 0 1,1 -130,0 z M 315 65 m -16, 0 a 16,16 0 1,1 32,0 a 16,16 0 1,1 -32,0 z " horiz-adv-x="625" unicode="e"/>
<glyph d="M 65 565 m -16, 0 a 16,16 0 1,1 32,0 a 16,16 0 1,1 -32,0 z M 65 315 m -65, 0 a 65,65 0 1,1 130,0 a 65,65 0 1,1 -130,0 z M 65 65 m -16, 0 a 16,16 0 1,1 32,0 a 16,16 0 1,1 -32,0 z M 315 565 m -16, 0 a 16,16 0 1,1 32,0 a 16,16 0 1,1 -32,0 z M 315 315 m -65, 0 a 65,65 0 1,1 130,0 a 65,65 0 1,1 -130,0 z M 315 65 m -16, 0 a 16,16 0 1,1 32,0 a 16,16 0 1,1 -32,0 z " horiz-adv-x="625" unicode=":"/>
<glyph d="M 65 565 m -65, 0 a 65,65 0 1,1 130,0 a 65,65 0 1,1 -130,0 z M 65 315 m -65, 0 a 65,65 0 1,1 130,0 a 65,65 0 1,1 -130,0 z M 65 65 m -16, 0 a 16,16 0 1,1 32,0 a 16,16 0 1,1 -32,0 z M 315 565 m -16, 0 a 16,16 0 1,1 32,0 a 16,16 0 1,1 -32,0 z M 315 315 m -65, 0 a 65,65 0 1,1 130,0 a 65,65 0 1,1 -130,0 z M 315 65 m -16, 0 a 16,16 0 1,1 32,0 a 16,16 0 1,1 -32,0 z " horiz-adv-x="625" unicode="h"/>
<glyph d="M 65 565 m -16, 0 a 16,16 0 1,1 32,0 a 16,16 0 1,1 -32,0 z M 65 315 m -16, 0 a 16,16 0 1,1 32,0 a 16,16 0 1,1 -32,0 z M 65 65 m -65, 0 a 65,65 0 1,1 130,0 a 65,65 0 1,1 -130,0 z M 315 565 m -16, 0 a 16,16 0 1,1 32,0 a 16,16 0 1,1 -32,0 z M 315 315 m -65, 0 a 65,65 0 1,1 130,0 a 65,65 0 1,1 -130,0 z M 315 65 m -16, 0 a 16,16 0 1,1 32,0 a 16,16 0 1,1 -32,0 z " horiz-adv-x="625" unicode="*"/>
<glyph d="M 65 565 m -65, 0 a 65,65 0 1,1 130,0 a 65,65 0 1,1 -130,0 z M 65 315 m -16, 0 a 16,16 0 1,1 32,0 a 16,16 0 1,1 -32,0 z M 65 65 m -65, 0 a 65,65 0 1,1 130,0 a 65,65 0 1,1 -130,0 z M 315 565 m -16, 0 a 16,16 0 1,1 32,0 a 16,16 0 1,1 -32,0 z M 315 315 m -65, 0 a 65,65 0 1,1 130,0 a 65,65 0 1,1 -130,0 z M 315 65 m -16, 0 a 16,16 0 1,1 32,0 a 16,16 0 1,1 -32,0 z " horiz-adv-x="625" unicode="o"/>
<glyph d="M 65 565 m -16, 0 a 16,16 0 1,1 32,0 a 16,16 0 1,1 -32,0 z M 65 315 m -65, 0 a 65,65 0 1,1 130,0 a 65,65 0 1,1 -130,0 z M 65 65 m -65, 0 a 65,65 0 1,1 130,0 a 65,65 0 1,1 -130,0 z M 315 565 m -16, 0 a 16,16 0 1,1 32,0 a 16,16 0 1,1 -32,0 z M 315 315 m -65, 0 a 65,65 0 1,1 130,0 a 65,65 0 1,1 -130,0 z M 315 65 m -16, 0 a 16,16 0 1,1 32,0 a 16,16 0 1,1 -32,0 z " horiz-adv-x="625" unicode="!"/>
<glyph d="M 65 565 m -65, 0 a 65,65 0 1,1 130,0 a 65,65 0 1,1 -130,0 z M 65 315 m -65, 0 a 65,65 0 1,1 130,0 a 65,65 0 1,1 -130,0 z M 65 65 m -65, 0 a 65,65 0 1,1 130,0 a 65,65 0 1,1 -130,0 z M 315 565 m -16, 0 a 16,16 0 1,1 32,0 a 16,16 0 1,1 -32,0 z M 315 315 m -65, 0 a 65,65 0 1,1 130,0 a 65,65 0 1,1 -130,0 z M 315 65 m -16, 0 a 16,16 0 1,1 32,0 a 16,16 0 1,1 -32,0 z " horiz-adv-x="625" unicode="r"/>
<glyph d="M 65 565 m -16, 0 a 16,16 0 1,1 32,0 a 16,16 0 1,1 -32,0 z M 65 315 m -16, 0 a 16,16 0 1,1 32,0 a 16,16 0 1,1 -32,0 z M 65 65 m -16, 0 a 16,16 0 1,1 32,0 a 16,16 0 1,1 -32,0 z M 315 565 m -65, 0 a 65,65 0 1,1 130,0 a 65,65 0 1,1 -130,0 z M 315 315 m -65, 0 a 65,65 0 1,1 130,0 a 65,65 0 1,1 -130,0 z M 315 65 m -16, 0 a 16,16 0 1,1 32,0 a 16,16 0 1,1 -32,0 z " horiz-adv-x="625" unicode="¤"/>
<glyph d="M 65 565 m -65, 0 a 65,65 0 1,1 130,0 a 65,65 0 1,1 -130,0 z M 65 315 m -16, 0 a 16,16 0 1,1 32,0 a 16,16 0 1,1 -32,0 z M 65 65 m -16, 0 a 16,16 0 1,1 32,0 a 16,16 0 1,1 -32,0 z M 315 565 m -65, 0 a 65,65 0 1,1 130,0 a 65,65 0 1,1 -130,0 z M 315 315 m -65, 0 a 65,65 0 1,1 130,0 a 65,65 0 1,1 -130,0 z M 315 65 m -16, 0 a 16,16 0 1,1 32,0 a 16,16 0 1,1 -32,0 z " horiz-adv-x="625" unicode="d"/>
<glyph d="M 65 565 m -16, 0 a 16,16 0 1,1 32,0 a 16,16 0 1,1 -32,0 z M 65 315 m -65, 0 a 65,65 0 1,1 130,0 a 65,65 0 1,1 -130,0 z M 65 65 m -16, 0 a 16,16 0 1,1 32,0 a 16,16 0 1,1 -32,0 z M 315 565 m -65, 0 a 65,65 0 1,1 130,0 a 65,65 0 1,1 -130,0 z M 315 315 m -65, 0 a 65,65 0 1,1 130,0 a 65,65 0 1,1 -130,0 z M 315 65 m -16, 0 a 16,16 0 1,1 32,0 a 16,16 0 1,1 -32,0 z " horiz-adv-x="625" unicode="j"/>
<glyph d="M 65 565 m -65, 0 a 65,65 0 1,1 130,0 a 65,65 0 1,1 -130,0 z M 65 315 m -65, 0 a 65,65 0 1,1 130,0 a 65,65 0 1,1 -130,0 z M 65 65 m -16, 0 a 16,16 0 1,1 32,0 a 16,16 0 1,1 -32,0 z M 315 565 m -65, 0 a 65,65 0 1,1 130,0 a 65,65 0 1,1 -130,0 z M 315 315 m -65, 0 a 65,65 0 1,1 130,0 a 65,65 0 1,1 -130,0 z M 315 65 m -16, 0 a 16,16 0 1,1 32,0 a 16,16 0 1,1 -32,0 z " horiz-adv-x="625" unicode="g"/>
<glyph d="M 65 565 m -16, 0 a 16,16 0 1,1 32,0 a 16,16 0 1,1 -32,0 z M 65 315 m -16, 0 a 16,16 0 1,1 32,0 a 16,16 0 1,1 -32,0 z M 65 65 m -65, 0 a 65,65 0 1,1 130,0 a 65,65 0 1,1 -130,0 z M 315 565 m -65, 0 a 65,65 0 1,1 130,0 a 65,65 0 1,1 -130,0 z M 315 315 m -65, 0 a 65,65 0 1,1 130,0 a 65,65 0 1,1 -130,0 z M 315 65 m -16, 0 a 16,16 0 1,1 32,0 a 16,16 0 1,1 -32,0 z " horiz-adv-x="625" unicode="@"/>
<glyph d="M 65 565 m -65, 0 a 65,65 0 1,1 130,0 a 65,65 0 1,1 -130,0 z M 65 315 m -16, 0 a 16,16 0 1,1 32,0 a 16,16 0 1,1 -32,0 z M 65 65 m -65, 0 a 65,65 0 1,1 130,0 a 65,65 0 1,1 -130,0 z M 315 565 m -65, 0 a 65,65 0 1,1 130,0 a 65,65 0 1,1 -130,0 z M 315 315 m -65, 0 a 65,65 0 1,1 130,0 a 65,65 0 1,1 -130,0 z M 315 65 m -16, 0 a 16,16 0 1,1 32,0 a 16,16 0 1,1 -32,0 z " horiz-adv-x="625" unicode="n"/>
<glyph d="M 65 565 m -16, 0 a 16,16 0 1,1 32,0 a 16,16 0 1,1 -32,0 z M 65 315 m -65, 0 a 65,65 0 1,1 130,0 a 65,65 0 1,1 -130,0 z M 65 65 m -65, 0 a 65,65 0 1,1 130,0 a 65,65 0 1,1 -130,0 z M 315 565 m -65, 0 a 65,65 0 1,1 130,0 a 65,65 0 1,1 -130,0 z M 315 315 m -65, 0 a 65,65 0 1,1 130,0 a 65,65 0 1,1 -130,0 z M 315 65 m -16, 0 a 16,16 0 1,1 32,0 a 16,16 0 1,1 -32,0 z " horiz-adv-x="625" unicode="t"/>
<glyph d="M 65 565 m -65, 0 a 65,65 0 1,1 130,0 a 65,65 0 1,1 -130,0 z M 65 315 m -65, 0 a 65,65 0 1,1 130,0 a 65,65 0 1,1 -130,0 z M 65 65 m -65, 0 a 65,65 0 1,1 130,0 a 65,65 0 1,1 -130,0 z M 315 565 m -65, 0 a 65,65 0 1,1 130,0 a 65,65 0 1,1 -130,0 z M 315 315 m -65, 0 a 65,65 0 1,1 130,0 a 65,65 0 1,1 -130,0 z M 315 65 m -16, 0 a 16,16 0 1,1 32,0 a 16,16 0 1,1 -32,0 z " horiz-adv-x="625" unicode="q"/>
<glyph d="M 65 565 m -16, 0 a 16,16 0 1,1 32,0 a 16,16 0 1,1 -32,0 z M 65 315 m -16, 0 a 16,16 0 1,1 32,0 a 16,16 0 1,1 -32,0 z M 65 65 m -16, 0 a 16,16 0 1,1 32,0 a 16,16 0 1,1 -32,0 z M 315 565 m -16, 0 a 16,16 0 1,1 32,0 a 16,16 0 1,1 -32,0 z M 315 315 m -16, 0 a 16,16 0 1,1 32,0 a 16,16 0 1,1 -32,0 z M 315 65 m -65, 0 a 65,65 0 1,1 130,0 a 65,65 0 1,1 -130,0 z " horiz-adv-x="625" unicode="`"/>
<glyph d="M 65 565 m -65, 0 a 65,65 0 1,1 130,0 a 65,65 0 1,1 -130,0 z M 65 315 m -16, 0 a 16,16 0 1,1 32,0 a 16,16 0 1,1 -32,0 z M 65 65 m -16, 0 a 16,16 0 1,1 32,0 a 16,16 0 1,1 -32,0 z M 315 565 m -16, 0 a 16,16 0 1,1 32,0 a 16,16 0 1,1 -32,0 z M 315 315 m -16, 0 a 16,16 0 1,1 32,0 a 16,16 0 1,1 -32,0 z M 315 65 m -65, 0 a 65,65 0 1,1 130,0 a 65,65 0 1,1 -130,0 z " horiz-adv-x="625" unicode="1"/>
<glyph d="M 65 565 m -16, 0 a 16,16 0 1,1 32,0 a 16,16 0 1,1 -32,0 z M 65 315 m -65, 0 a 65,65 0 1,1 130,0 a 65,65 0 1,1 -130,0 z M 65 65 m -16, 0 a 16,16 0 1,1 32,0 a 16,16 0 1,1 -32,0 z M 315 565 m -16, 0 a 16,16 0 1,1 32,0 a 16,16 0 1,1 -32,0 z M 315 315 m -16, 0 a 16,16 0 1,1 32,0 a 16,16 0 1,1 -32,0 z M 315 65 m -65, 0 a 65,65 0 1,1 130,0 a 65,65 0 1,1 -130,0 z " horiz-adv-x="625" unicode="?"/>
<glyph d="M 65 565 m -65, 0 a 65,65 0 1,1 130,0 a 65,65 0 1,1 -130,0 z M 65 315 m -65, 0 a 65,65 0 1,1 130,0 a 65,65 0 1,1 -130,0 z M 65 65 m -16, 0 a 16,16 0 1,1 32,0 a 16,16 0 1,1 -32,0 z M 315 565 m -16, 0 a 16,16 0 1,1 32,0 a 16,16 0 1,1 -32,0 z M 315 315 m -16, 0 a 16,16 0 1,1 32,0 a 16,16 0 1,1 -32,0 z M 315 65 m -65, 0 a 65,65 0 1,1 130,0 a 65,65 0 1,1 -130,0 z " horiz-adv-x="625" unicode="2"/>
<glyph d="M 65 565 m -16, 0 a 16,16 0 1,1 32,0 a 16,16 0 1,1 -32,0 z M 65 315 m -16, 0 a 16,16 0 1,1 32,0 a 16,16 0 1,1 -32,0 z M 65 65 m -65, 0 a 65,65 0 1,1 130,0 a 65,65 0 1,1 -130,0 z M 315 565 m -16, 0 a 16,16 0 1,1 32,0 a 16,16 0 1,1 -32,0 z M 315 315 m -16, 0 a 16,16 0 1,1 32,0 a 16,16 0 1,1 -32,0 z M 315 65 m -65, 0 a 65,65 0 1,1 130,0 a 65,65 0 1,1 -130,0 z " horiz-adv-x="625" unicode="-"/>
<glyph d="M 65 565 m -65, 0 a 65,65 0 1,1 130,0 a 65,65 0 1,1 -130,0 z M 65 315 m -16, 0 a 16,16 0 1,1 32,0 a 16,16 0 1,1 -32,0 z M 65 65 m -65, 0 a 65,65 0 1,1 130,0 a 65,65 0 1,1 -130,0 z M 315 565 m -16, 0 a 16,16 0 1,1 32,0 a 16,16 0 1,1 -32,0 z M 315 315 m -16, 0 a 16,16 0 1,1 32,0 a 16,16 0 1,1 -32,0 z M 315 65 m -65, 0 a 65,65 0 1,1 130,0 a 65,65 0 1,1 -130,0 z " horiz-adv-x="625" unicode="u"/>
<glyph d="M 65 565 m -16, 0 a 16,16 0 1,1 32,0 a 16,16 0 1,1 -32,0 z M 65 315 m -65, 0 a 65,65 0 1,1 130,0 a 65,65 0 1,1 -130,0 z M 65 65 m -65, 0 a 65,65 0 1,1 130,0 a 65,65 0 1,1 -130,0 z M 315 565 m -16, 0 a 16,16 0 1,1 32,0 a 16,16 0 1,1 -32,0 z M 315 315 m -16, 0 a 16,16 0 1,1 32,0 a 16,16 0 1,1 -32,0 z M 315 65 m -65, 0 a 65,65 0 1,1 130,0 a 65,65 0 1,1 -130,0 z " horiz-adv-x="625" unicode="("/>
<glyph d="M 65 565 m -65, 0 a 65,65 0 1,1 130,0 a 65,65 0 1,1 -130,0 z M 65 315 m -65, 0 a 65,65 0 1,1 130,0 a 65,65 0 1,1 -130,0 z M 65 65 m -65, 0 a 65,65 0 1,1 130,0 a 65,65 0 1,1 -130,0 z M 315 565 m -16, 0 a 16,16 0 1,1 32,0 a 16,16 0 1,1 -32,0 z M 315 315 m -16, 0 a 16,16 0 1,1 32,0 a 16,16 0 1,1 -32,0 z M 315 65 m -65, 0 a 65,65 0 1,1 130,0 a 65,65 0 1,1 -130,0 z " horiz-adv-x="625" unicode="v"/>
<glyph d="M 65 565 m -16, 0 a 16,16 0 1,1 32,0 a 16,16 0 1,1 -32,0 z M 65 315 m -16, 0 a 16,16 0 1,1 32,0 a 16,16 0 1,1 -32,0 z M 65 65 m -16, 0 a 16,16 0 1,1 32,0 a 16,16 0 1,1 -32,0 z M 315 565 m -65, 0 a 65,65 0 1,1 130,0 a 65,65 0 1,1 -130,0 z M 315 315 m -16, 0 a 16,16 0 1,1 32,0 a 16,16 0 1,1 -32,0 z M 315 65 m -65, 0 a 65,65 0 1,1 130,0 a 65,65 0 1,1 -130,0 z " horiz-adv-x="625" unicode="¨"/>
<glyph d="M 65 565 m -65, 0 a 65,65 0 1,1 130,0 a 65,65 0 1,1 -130,0 z M 65 315 m -16, 0 a 16,16 0 1,1 32,0 a 16,16 0 1,1 -32,0 z M 65 65 m -16, 0 a 16,16 0 1,1 32,0 a 16,16 0 1,1 -32,0 z M 315 565 m -65, 0 a 65,65 0 1,1 130,0 a 65,65 0 1,1 -130,0 z M 315 315 m -16, 0 a 16,16 0 1,1 32,0 a 16,16 0 1,1 -32,0 z M 315 65 m -65, 0 a 65,65 0 1,1 130,0 a 65,65 0 1,1 -130,0 z " horiz-adv-x="625" unicode="3"/>
<glyph d="M 65 565 m -16, 0 a 16,16 0 1,1 32,0 a 16,16 0 1,1 -32,0 z M 65 315 m -65, 0 a 65,65 0 1,1 130,0 a 65,65 0 1,1 -130,0 z M 65 65 m -16, 0 a 16,16 0 1,1 32,0 a 16,16 0 1,1 -32,0 z M 315 565 m -65, 0 a 65,65 0 1,1 130,0 a 65,65 0 1,1 -130,0 z M 315 315 m -16, 0 a 16,16 0 1,1 32,0 a 16,16 0 1,1 -32,0 z M 315 65 m -65, 0 a 65,65 0 1,1 130,0 a 65,65 0 1,1 -130,0 z " horiz-adv-x="625" unicode="9"/>
<glyph d="M 65 565 m -65, 0 a 65,65 0 1,1 130,0 a 65,65 0 1,1 -130,0 z M 65 315 m -65, 0 a 65,65 0 1,1 130,0 a 65,65 0 1,1 -130,0 z M 65 65 m -16, 0 a 16,16 0 1,1 32,0 a 16,16 0 1,1 -32,0 z M 315 565 m -65, 0 a 65,65 0 1,1 130,0 a 65,65 0 1,1 -130,0 z M 315 315 m -16, 0 a 16,16 0 1,1 32,0 a 16,16 0 1,1 -32,0 z M 315 65 m -65, 0 a 65,65 0 1,1 130,0 a 65,65 0 1,1 -130,0 z " horiz-adv-x="625" unicode="6"/>
<glyph d="M 65 565 m -16, 0 a 16,16 0 1,1 32,0 a 16,16 0 1,1 -32,0 z M 65 315 m -16, 0 a 16,16 0 1,1 32,0 a 16,16 0 1,1 -32,0 z M 65 65 m -65, 0 a 65,65 0 1,1 130,0 a 65,65 0 1,1 -130,0 z M 315 565 m -65, 0 a 65,65 0 1,1 130,0 a 65,65 0 1,1 -130,0 z M 315 315 m -16, 0 a 16,16 0 1,1 32,0 a 16,16 0 1,1 -32,0 z M 315 65 m -65, 0 a 65,65 0 1,1 130,0 a 65,65 0 1,1 -130,0 z " horiz-adv-x="625" unicode="ó"/>
<glyph d="M 65 565 m -65, 0 a 65,65 0 1,1 130,0 a 65,65 0 1,1 -130,0 z M 65 315 m -16, 0 a 16,16 0 1,1 32,0 a 16,16 0 1,1 -32,0 z M 65 65 m -65, 0 a 65,65 0 1,1 130,0 a 65,65 0 1,1 -130,0 z M 315 565 m -65, 0 a 65,65 0 1,1 130,0 a 65,65 0 1,1 -130,0 z M 315 315 m -16, 0 a 16,16 0 1,1 32,0 a 16,16 0 1,1 -32,0 z M 315 65 m -65, 0 a 65,65 0 1,1 130,0 a 65,65 0 1,1 -130,0 z " horiz-adv-x="625" unicode="x"/>
<glyph d="M 65 565 m -16, 0 a 16,16 0 1,1 32,0 a 16,16 0 1,1 -32,0 z M 65 315 m -65, 0 a 65,65 0 1,1 130,0 a 65,65 0 1,1 -130,0 z M 65 65 m -65, 0 a 65,65 0 1,1 130,0 a 65,65 0 1,1 -130,0 z M 315 565 m -65, 0 a 65,65 0 1,1 130,0 a 65,65 0 1,1 -130,0 z M 315 315 m -16, 0 a 16,16 0 1,1 32,0 a 16,16 0 1,1 -32,0 z M 315 65 m -65, 0 a 65,65 0 1,1 130,0 a 65,65 0 1,1 -130,0 z " horiz-adv-x="625" unicode="è"/>
<glyph d="M 65 565 m -65, 0 a 65,65 0 1,1 130,0 a 65,65 0 1,1 -130,0 z M 65 315 m -65, 0 a 65,65 0 1,1 130,0 a 65,65 0 1,1 -130,0 z M 65 65 m -65, 0 a 65,65 0 1,1 130,0 a 65,65 0 1,1 -130,0 z M 315 565 m -65, 0 a 65,65 0 1,1 130,0 a 65,65 0 1,1 -130,0 z M 315 315 m -16, 0 a 16,16 0 1,1 32,0 a 16,16 0 1,1 -32,0 z M 315 65 m -65, 0 a 65,65 0 1,1 130,0 a 65,65 0 1,1 -130,0 z " horiz-adv-x="625" unicode="ç"/>
<glyph d="M 65 565 m -16, 0 a 16,16 0 1,1 32,0 a 16,16 0 1,1 -32,0 z M 65 315 m -16, 0 a 16,16 0 1,1 32,0 a 16,16 0 1,1 -32,0 z M 65 65 m -16, 0 a 16,16 0 1,1 32,0 a 16,16 0 1,1 -32,0 z M 315 565 m -16, 0 a 16,16 0 1,1 32,0 a 16,16 0 1,1 -32,0 z M 315 315 m -65, 0 a 65,65 0 1,1 130,0 a 65,65 0 1,1 -130,0 z M 315 65 m -65, 0 a 65,65 0 1,1 130,0 a 65,65 0 1,1 -130,0 z " horiz-adv-x="625" unicode="&gt;"/>
<glyph d="M 65 565 m -65, 0 a 65,65 0 1,1 130,0 a 65,65 0 1,1 -130,0 z M 65 315 m -16, 0 a 16,16 0 1,1 32,0 a 16,16 0 1,1 -32,0 z M 65 65 m -16, 0 a 16,16 0 1,1 32,0 a 16,16 0 1,1 -32,0 z M 315 565 m -16, 0 a 16,16 0 1,1 32,0 a 16,16 0 1,1 -32,0 z M 315 315 m -65, 0 a 65,65 0 1,1 130,0 a 65,65 0 1,1 -130,0 z M 315 65 m -65, 0 a 65,65 0 1,1 130,0 a 65,65 0 1,1 -130,0 z " horiz-adv-x="625" unicode="5"/>
<glyph d="M 65 565 m -16, 0 a 16,16 0 1,1 32,0 a 16,16 0 1,1 -32,0 z M 65 315 m -65, 0 a 65,65 0 1,1 130,0 a 65,65 0 1,1 -130,0 z M 65 65 m -16, 0 a 16,16 0 1,1 32,0 a 16,16 0 1,1 -32,0 z M 315 565 m -16, 0 a 16,16 0 1,1 32,0 a 16,16 0 1,1 -32,0 z M 315 315 m -65, 0 a 65,65 0 1,1 130,0 a 65,65 0 1,1 -130,0 z M 315 65 m -65, 0 a 65,65 0 1,1 130,0 a 65,65 0 1,1 -130,0 z " horiz-adv-x="625" unicode="."/>
<glyph d="M 65 565 m -65, 0 a 65,65 0 1,1 130,0 a 65,65 0 1,1 -130,0 z M 65 315 m -65, 0 a 65,65 0 1,1 130,0 a 65,65 0 1,1 -130,0 z M 65 65 m -16, 0 a 16,16 0 1,1 32,0 a 16,16 0 1,1 -32,0 z M 315 565 m -16, 0 a 16,16 0 1,1 32,0 a 16,16 0 1,1 -32,0 z M 315 315 m -65, 0 a 65,65 0 1,1 130,0 a 65,65 0 1,1 -130,0 z M 315 65 m -65, 0 a 65,65 0 1,1 130,0 a 65,65 0 1,1 -130,0 z " horiz-adv-x="625" unicode="8"/>
<glyph d="M 65 565 m -16, 0 a 16,16 0 1,1 32,0 a 16,16 0 1,1 -32,0 z M 65 315 m -16, 0 a 16,16 0 1,1 32,0 a 16,16 0 1,1 -32,0 z M 65 65 m -65, 0 a 65,65 0 1,1 130,0 a 65,65 0 1,1 -130,0 z M 315 565 m -16, 0 a 16,16 0 1,1 32,0 a 16,16 0 1,1 -32,0 z M 315 315 m -65, 0 a 65,65 0 1,1 130,0 a 65,65 0 1,1 -130,0 z M 315 65 m -65, 0 a 65,65 0 1,1 130,0 a 65,65 0 1,1 -130,0 z " horiz-adv-x="625" unicode=")"/>
<glyph d="M 65 565 m -65, 0 a 65,65 0 1,1 130,0 a 65,65 0 1,1 -130,0 z M 65 315 m -16, 0 a 16,16 0 1,1 32,0 a 16,16 0 1,1 -32,0 z M 65 65 m -65, 0 a 65,65 0 1,1 130,0 a 65,65 0 1,1 -130,0 z M 315 565 m -16, 0 a 16,16 0 1,1 32,0 a 16,16 0 1,1 -32,0 z M 315 315 m -65, 0 a 65,65 0 1,1 130,0 a 65,65 0 1,1 -130,0 z M 315 65 m -65, 0 a 65,65 0 1,1 130,0 a 65,65 0 1,1 -130,0 z " horiz-adv-x="625" unicode="z"/>
<glyph d="M 65 565 m -16, 0 a 16,16 0 1,1 32,0 a 16,16 0 1,1 -32,0 z M 65 315 m -65, 0 a 65,65 0 1,1 130,0 a 65,65 0 1,1 -130,0 z M 65 65 m -65, 0 a 65,65 0 1,1 130,0 a 65,65 0 1,1 -130,0 z M 315 565 m -16, 0 a 16,16 0 1,1 32,0 a 16,16 0 1,1 -32,0 z M 315 315 m -65, 0 a 65,65 0 1,1 130,0 a 65,65 0 1,1 -130,0 z M 315 65 m -65, 0 a 65,65 0 1,1 130,0 a 65,65 0 1,1 -130,0 z " horiz-adv-x="625" unicode="&quot;"/>
<glyph d="M 65 565 m -65, 0 a 65,65 0 1,1 130,0 a 65,65 0 1,1 -130,0 z M 65 315 m -65, 0 a 65,65 0 1,1 130,0 a 65,65 0 1,1 -130,0 z M 65 65 m -65, 0 a 65,65 0 1,1 130,0 a 65,65 0 1,1 -130,0 z M 315 565 m -16, 0 a 16,16 0 1,1 32,0 a 16,16 0 1,1 -32,0 z M 315 315 m -65, 0 a 65,65 0 1,1 130,0 a 65,65 0 1,1 -130,0 z M 315 65 m -65, 0 a 65,65 0 1,1 130,0 a 65,65 0 1,1 -130,0 z " horiz-adv-x="625" unicode="à"/>
<glyph d="M 65 565 m -16, 0 a 16,16 0 1,1 32,0 a 16,16 0 1,1 -32,0 z M 65 315 m -16, 0 a 16,16 0 1,1 32,0 a 16,16 0 1,1 -32,0 z M 65 65 m -16, 0 a 16,16 0 1,1 32,0 a 16,16 0 1,1 -32,0 z M 315 565 m -65, 0 a 65,65 0 1,1 130,0 a 65,65 0 1,1 -130,0 z M 315 315 m -65, 0 a 65,65 0 1,1 130,0 a 65,65 0 1,1 -130,0 z M 315 65 m -65, 0 a 65,65 0 1,1 130,0 a 65,65 0 1,1 -130,0 z " horiz-adv-x="625" unicode="¸"/>
<glyph d="M 65 565 m -65, 0 a 65,65 0 1,1 130,0 a 65,65 0 1,1 -130,0 z M 65 315 m -16, 0 a 16,16 0 1,1 32,0 a 16,16 0 1,1 -32,0 z M 65 65 m -16, 0 a 16,16 0 1,1 32,0 a 16,16 0 1,1 -32,0 z M 315 565 m -65, 0 a 65,65 0 1,1 130,0 a 65,65 0 1,1 -130,0 z M 315 315 m -65, 0 a 65,65 0 1,1 130,0 a 65,65 0 1,1 -130,0 z M 315 65 m -65, 0 a 65,65 0 1,1 130,0 a 65,65 0 1,1 -130,0 z " horiz-adv-x="625" unicode="4"/>
<glyph d="M 65 565 m -16, 0 a 16,16 0 1,1 32,0 a 16,16 0 1,1 -32,0 z M 65 315 m -65, 0 a 65,65 0 1,1 130,0 a 65,65 0 1,1 -130,0 z M 65 65 m -16, 0 a 16,16 0 1,1 32,0 a 16,16 0 1,1 -32,0 z M 315 565 m -65, 0 a 65,65 0 1,1 130,0 a 65,65 0 1,1 -130,0 z M 315 315 m -65, 0 a 65,65 0 1,1 130,0 a 65,65 0 1,1 -130,0 z M 315 65 m -65, 0 a 65,65 0 1,1 130,0 a 65,65 0 1,1 -130,0 z " horiz-adv-x="625" unicode="w"/>
<glyph d="M 65 565 m -65, 0 a 65,65 0 1,1 130,0 a 65,65 0 1,1 -130,0 z M 65 315 m -65, 0 a 65,65 0 1,1 130,0 a 65,65 0 1,1 -130,0 z M 65 65 m -16, 0 a 16,16 0 1,1 32,0 a 16,16 0 1,1 -32,0 z M 315 565 m -65, 0 a 65,65 0 1,1 130,0 a 65,65 0 1,1 -130,0 z M 315 315 m -65, 0 a 65,65 0 1,1 130,0 a 65,65 0 1,1 -130,0 z M 315 65 m -65, 0 a 65,65 0 1,1 130,0 a 65,65 0 1,1 -130,0 z " horiz-adv-x="625" unicode="7"/>
<glyph d="M 65 565 m -16, 0 a 16,16 0 1,1 32,0 a 16,16 0 1,1 -32,0 z M 65 315 m -16, 0 a 16,16 0 1,1 32,0 a 16,16 0 1,1 -32,0 z M 65 65 m -65, 0 a 65,65 0 1,1 130,0 a 65,65 0 1,1 -130,0 z M 315 565 m -65, 0 a 65,65 0 1,1 130,0 a 65,65 0 1,1 -130,0 z M 315 315 m -65, 0 a 65,65 0 1,1 130,0 a 65,65 0 1,1 -130,0 z M 315 65 m -65, 0 a 65,65 0 1,1 130,0 a 65,65 0 1,1 -130,0 z " horiz-adv-x="625" unicode="0"/>
<glyph d="M 65 565 m -65, 0 a 65,65 0 1,1 130,0 a 65,65 0 1,1 -130,0 z M 65 315 m -16, 0 a 16,16 0 1,1 32,0 a 16,16 0 1,1 -32,0 z M 65 65 m -65, 0 a 65,65 0 1,1 130,0 a 65,65 0 1,1 -130,0 z M 315 565 m -65, 0 a 65,65 0 1,1 130,0 a 65,65 0 1,1 -130,0 z M 315 315 m -65, 0 a 65,65 0 1,1 130,0 a 65,65 0 1,1 -130,0 z M 315 65 m -65, 0 a 65,65 0 1,1 130,0 a 65,65 0 1,1 -130,0 z " horiz-adv-x="625" unicode="y"/>
<glyph d="M 65 565 m -16, 0 a 16,16 0 1,1 32,0 a 16,16 0 1,1 -32,0 z M 65 315 m -65, 0 a 65,65 0 1,1 130,0 a 65,65 0 1,1 -130,0 z M 65 65 m -65, 0 a 65,65 0 1,1 130,0 a 65,65 0 1,1 -130,0 z M 315 565 m -65, 0 a 65,65 0 1,1 130,0 a 65,65 0 1,1 -130,0 z M 315 315 m -65, 0 a 65,65 0 1,1 130,0 a 65,65 0 1,1 -130,0 z M 315 65 m -65, 0 a 65,65 0 1,1 130,0 a 65,65 0 1,1 -130,0 z " horiz-adv-x="625" unicode="ù"/>
<glyph d="M 65 565 m -65, 0 a 65,65 0 1,1 130,0 a 65,65 0 1,1 -130,0 z M 65 315 m -65, 0 a 65,65 0 1,1 130,0 a 65,65 0 1,1 -130,0 z M 65 65 m -65, 0 a 65,65 0 1,1 130,0 a 65,65 0 1,1 -130,0 z M 315 565 m -65, 0 a 65,65 0 1,1 130,0 a 65,65 0 1,1 -130,0 z M 315 315 m -65, 0 a 65,65 0 1,1 130,0 a 65,65 0 1,1 -130,0 z M 315 65 m -65, 0 a 65,65 0 1,1 130,0 a 65,65 0 1,1 -130,0 z " horiz-adv-x="625" unicode="é"/>
</font>
</defs>
</svg>
