<?xml version="1.0" encoding="UTF-8" standalone="no"?>
<svg>
<metadata>built for 'IBM850' braille table on Sun Dec 07 11:53:13 CET 2014</metadata>
<defs>
<font horiz-adv-x="600" id="Braille-IBM850" vert-adv-y="">
<font-face ascent="630" descent="-250" font-family="Braille" font-stretch="normal" font-weight="normal" units-per-em="1024"/>
<missing-glyph/>
<glyph d="M 65 565 m -16, 0 a 16,16 0 1,1 32,0 a 16,16 0 1,1 -32,0 z M 65 315 m -16, 0 a 16,16 0 1,1 32,0 a 16,16 0 1,1 -32,0 z M 65 65 m -16, 0 a 16,16 0 1,1 32,0 a 16,16 0 1,1 -32,0 z M 315 565 m -16, 0 a 16,16 0 1,1 32,0 a 16,16 0 1,1 -32,0 z M 315 315 m -16, 0 a 16,16 0 1,1 32,0 a 16,16 0 1,1 -32,0 z M 315 65 m -16, 0 a 16,16 0 1,1 32,0 a 16,16 0 1,1 -32,0 z " horiz-adv-x="600" unicode=" "/>
<glyph d="M 65 565 m -65, 0 a 65,65 0 1,1 130,0 a 65,65 0 1,1 -130,0 z M 65 315 m -16, 0 a 16,16 0 1,1 32,0 a 16,16 0 1,1 -32,0 z M 65 65 m -16, 0 a 16,16 0 1,1 32,0 a 16,16 0 1,1 -32,0 z M 315 565 m -16, 0 a 16,16 0 1,1 32,0 a 16,16 0 1,1 -32,0 z M 315 315 m -16, 0 a 16,16 0 1,1 32,0 a 16,16 0 1,1 -32,0 z M 315 65 m -16, 0 a 16,16 0 1,1 32,0 a 16,16 0 1,1 -32,0 z " horiz-adv-x="600" unicode="a"/>
<glyph d="M 65 565 m -16, 0 a 16,16 0 1,1 32,0 a 16,16 0 1,1 -32,0 z M 65 315 m -65, 0 a 65,65 0 1,1 130,0 a 65,65 0 1,1 -130,0 z M 65 65 m -16, 0 a 16,16 0 1,1 32,0 a 16,16 0 1,1 -32,0 z M 315 565 m -16, 0 a 16,16 0 1,1 32,0 a 16,16 0 1,1 -32,0 z M 315 315 m -16, 0 a 16,16 0 1,1 32,0 a 16,16 0 1,1 -32,0 z M 315 65 m -16, 0 a 16,16 0 1,1 32,0 a 16,16 0 1,1 -32,0 z " horiz-adv-x="600" unicode=","/>
<glyph d="M 65 565 m -65, 0 a 65,65 0 1,1 130,0 a 65,65 0 1,1 -130,0 z M 65 315 m -65, 0 a 65,65 0 1,1 130,0 a 65,65 0 1,1 -130,0 z M 65 65 m -16, 0 a 16,16 0 1,1 32,0 a 16,16 0 1,1 -32,0 z M 315 565 m -16, 0 a 16,16 0 1,1 32,0 a 16,16 0 1,1 -32,0 z M 315 315 m -16, 0 a 16,16 0 1,1 32,0 a 16,16 0 1,1 -32,0 z M 315 65 m -16, 0 a 16,16 0 1,1 32,0 a 16,16 0 1,1 -32,0 z " horiz-adv-x="600" unicode="b"/>
<glyph d="M 65 565 m -16, 0 a 16,16 0 1,1 32,0 a 16,16 0 1,1 -32,0 z M 65 315 m -16, 0 a 16,16 0 1,1 32,0 a 16,16 0 1,1 -32,0 z M 65 65 m -65, 0 a 65,65 0 1,1 130,0 a 65,65 0 1,1 -130,0 z M 315 565 m -16, 0 a 16,16 0 1,1 32,0 a 16,16 0 1,1 -32,0 z M 315 315 m -16, 0 a 16,16 0 1,1 32,0 a 16,16 0 1,1 -32,0 z M 315 65 m -16, 0 a 16,16 0 1,1 32,0 a 16,16 0 1,1 -32,0 z " horiz-adv-x="600" unicode="."/>
<glyph d="M 65 565 m -65, 0 a 65,65 0 1,1 130,0 a 65,65 0 1,1 -130,0 z M 65 315 m -16, 0 a 16,16 0 1,1 32,0 a 16,16 0 1,1 -32,0 z M 65 65 m -65, 0 a 65,65 0 1,1 130,0 a 65,65 0 1,1 -130,0 z M 315 565 m -16, 0 a 16,16 0 1,1 32,0 a 16,16 0 1,1 -32,0 z M 315 315 m -16, 0 a 16,16 0 1,1 32,0 a 16,16 0 1,1 -32,0 z M 315 65 m -16, 0 a 16,16 0 1,1 32,0 a 16,16 0 1,1 -32,0 z " horiz-adv-x="600" unicode="k"/>
<glyph d="M 65 565 m -16, 0 a 16,16 0 1,1 32,0 a 16,16 0 1,1 -32,0 z M 65 315 m -65, 0 a 65,65 0 1,1 130,0 a 65,65 0 1,1 -130,0 z M 65 65 m -65, 0 a 65,65 0 1,1 130,0 a 65,65 0 1,1 -130,0 z M 315 565 m -16, 0 a 16,16 0 1,1 32,0 a 16,16 0 1,1 -32,0 z M 315 315 m -16, 0 a 16,16 0 1,1 32,0 a 16,16 0 1,1 -32,0 z M 315 65 m -16, 0 a 16,16 0 1,1 32,0 a 16,16 0 1,1 -32,0 z " horiz-adv-x="600" unicode=";"/>
<glyph d="M 65 565 m -65, 0 a 65,65 0 1,1 130,0 a 65,65 0 1,1 -130,0 z M 65 315 m -65, 0 a 65,65 0 1,1 130,0 a 65,65 0 1,1 -130,0 z M 65 65 m -65, 0 a 65,65 0 1,1 130,0 a 65,65 0 1,1 -130,0 z M 315 565 m -16, 0 a 16,16 0 1,1 32,0 a 16,16 0 1,1 -32,0 z M 315 315 m -16, 0 a 16,16 0 1,1 32,0 a 16,16 0 1,1 -32,0 z M 315 65 m -16, 0 a 16,16 0 1,1 32,0 a 16,16 0 1,1 -32,0 z " horiz-adv-x="600" unicode="l"/>
<glyph d="M 65 565 m -16, 0 a 16,16 0 1,1 32,0 a 16,16 0 1,1 -32,0 z M 65 315 m -16, 0 a 16,16 0 1,1 32,0 a 16,16 0 1,1 -32,0 z M 65 65 m -16, 0 a 16,16 0 1,1 32,0 a 16,16 0 1,1 -32,0 z M 315 565 m -65, 0 a 65,65 0 1,1 130,0 a 65,65 0 1,1 -130,0 z M 315 315 m -16, 0 a 16,16 0 1,1 32,0 a 16,16 0 1,1 -32,0 z M 315 65 m -16, 0 a 16,16 0 1,1 32,0 a 16,16 0 1,1 -32,0 z " horiz-adv-x="600" unicode="&quot;"/>
<glyph d="M 65 565 m -65, 0 a 65,65 0 1,1 130,0 a 65,65 0 1,1 -130,0 z M 65 315 m -16, 0 a 16,16 0 1,1 32,0 a 16,16 0 1,1 -32,0 z M 65 65 m -16, 0 a 16,16 0 1,1 32,0 a 16,16 0 1,1 -32,0 z M 315 565 m -65, 0 a 65,65 0 1,1 130,0 a 65,65 0 1,1 -130,0 z M 315 315 m -16, 0 a 16,16 0 1,1 32,0 a 16,16 0 1,1 -32,0 z M 315 65 m -16, 0 a 16,16 0 1,1 32,0 a 16,16 0 1,1 -32,0 z " horiz-adv-x="600" unicode="c"/>
<glyph d="M 65 565 m -16, 0 a 16,16 0 1,1 32,0 a 16,16 0 1,1 -32,0 z M 65 315 m -65, 0 a 65,65 0 1,1 130,0 a 65,65 0 1,1 -130,0 z M 65 65 m -16, 0 a 16,16 0 1,1 32,0 a 16,16 0 1,1 -32,0 z M 315 565 m -65, 0 a 65,65 0 1,1 130,0 a 65,65 0 1,1 -130,0 z M 315 315 m -16, 0 a 16,16 0 1,1 32,0 a 16,16 0 1,1 -32,0 z M 315 65 m -16, 0 a 16,16 0 1,1 32,0 a 16,16 0 1,1 -32,0 z " horiz-adv-x="600" unicode="i"/>
<glyph d="M 65 565 m -65, 0 a 65,65 0 1,1 130,0 a 65,65 0 1,1 -130,0 z M 65 315 m -65, 0 a 65,65 0 1,1 130,0 a 65,65 0 1,1 -130,0 z M 65 65 m -16, 0 a 16,16 0 1,1 32,0 a 16,16 0 1,1 -32,0 z M 315 565 m -65, 0 a 65,65 0 1,1 130,0 a 65,65 0 1,1 -130,0 z M 315 315 m -16, 0 a 16,16 0 1,1 32,0 a 16,16 0 1,1 -32,0 z M 315 65 m -16, 0 a 16,16 0 1,1 32,0 a 16,16 0 1,1 -32,0 z " horiz-adv-x="600" unicode="f"/>
<glyph d="M 65 565 m -16, 0 a 16,16 0 1,1 32,0 a 16,16 0 1,1 -32,0 z M 65 315 m -16, 0 a 16,16 0 1,1 32,0 a 16,16 0 1,1 -32,0 z M 65 65 m -65, 0 a 65,65 0 1,1 130,0 a 65,65 0 1,1 -130,0 z M 315 565 m -65, 0 a 65,65 0 1,1 130,0 a 65,65 0 1,1 -130,0 z M 315 315 m -16, 0 a 16,16 0 1,1 32,0 a 16,16 0 1,1 -32,0 z M 315 65 m -16, 0 a 16,16 0 1,1 32,0 a 16,16 0 1,1 -32,0 z " horiz-adv-x="600" unicode="|"/>
<glyph d="M 65 565 m -65, 0 a 65,65 0 1,1 130,0 a 65,65 0 1,1 -130,0 z M 65 315 m -16, 0 a 16,16 0 1,1 32,0 a 16,16 0 1,1 -32,0 z M 65 65 m -65, 0 a 65,65 0 1,1 130,0 a 65,65 0 1,1 -130,0 z M 315 565 m -65, 0 a 65,65 0 1,1 130,0 a 65,65 0 1,1 -130,0 z M 315 315 m -16, 0 a 16,16 0 1,1 32,0 a 16,16 0 1,1 -32,0 z M 315 65 m -16, 0 a 16,16 0 1,1 32,0 a 16,16 0 1,1 -32,0 z " horiz-adv-x="600" unicode="m"/>
<glyph d="M 65 565 m -16, 0 a 16,16 0 1,1 32,0 a 16,16 0 1,1 -32,0 z M 65 315 m -65, 0 a 65,65 0 1,1 130,0 a 65,65 0 1,1 -130,0 z M 65 65 m -65, 0 a 65,65 0 1,1 130,0 a 65,65 0 1,1 -130,0 z M 315 565 m -65, 0 a 65,65 0 1,1 130,0 a 65,65 0 1,1 -130,0 z M 315 315 m -16, 0 a 16,16 0 1,1 32,0 a 16,16 0 1,1 -32,0 z M 315 65 m -16, 0 a 16,16 0 1,1 32,0 a 16,16 0 1,1 -32,0 z " horiz-adv-x="600" unicode="s"/>
<glyph d="M 65 565 m -65, 0 a 65,65 0 1,1 130,0 a 65,65 0 1,1 -130,0 z M 65 315 m -65, 0 a 65,65 0 1,1 130,0 a 65,65 0 1,1 -130,0 z M 65 65 m -65, 0 a 65,65 0 1,1 130,0 a 65,65 0 1,1 -130,0 z M 315 565 m -65, 0 a 65,65 0 1,1 130,0 a 65,65 0 1,1 -130,0 z M 315 315 m -16, 0 a 16,16 0 1,1 32,0 a 16,16 0 1,1 -32,0 z M 315 65 m -16, 0 a 16,16 0 1,1 32,0 a 16,16 0 1,1 -32,0 z " horiz-adv-x="600" unicode="p"/>
<glyph d="M 65 565 m -16, 0 a 16,16 0 1,1 32,0 a 16,16 0 1,1 -32,0 z M 65 315 m -16, 0 a 16,16 0 1,1 32,0 a 16,16 0 1,1 -32,0 z M 65 65 m -16, 0 a 16,16 0 1,1 32,0 a 16,16 0 1,1 -32,0 z M 315 565 m -16, 0 a 16,16 0 1,1 32,0 a 16,16 0 1,1 -32,0 z M 315 315 m -65, 0 a 65,65 0 1,1 130,0 a 65,65 0 1,1 -130,0 z M 315 65 m -16, 0 a 16,16 0 1,1 32,0 a 16,16 0 1,1 -32,0 z " horiz-adv-x="600" unicode="!"/>
<glyph d="M 65 565 m -65, 0 a 65,65 0 1,1 130,0 a 65,65 0 1,1 -130,0 z M 65 315 m -16, 0 a 16,16 0 1,1 32,0 a 16,16 0 1,1 -32,0 z M 65 65 m -16, 0 a 16,16 0 1,1 32,0 a 16,16 0 1,1 -32,0 z M 315 565 m -16, 0 a 16,16 0 1,1 32,0 a 16,16 0 1,1 -32,0 z M 315 315 m -65, 0 a 65,65 0 1,1 130,0 a 65,65 0 1,1 -130,0 z M 315 65 m -16, 0 a 16,16 0 1,1 32,0 a 16,16 0 1,1 -32,0 z " horiz-adv-x="600" unicode="e"/>
<glyph d="M 65 565 m -16, 0 a 16,16 0 1,1 32,0 a 16,16 0 1,1 -32,0 z M 65 315 m -65, 0 a 65,65 0 1,1 130,0 a 65,65 0 1,1 -130,0 z M 65 65 m -16, 0 a 16,16 0 1,1 32,0 a 16,16 0 1,1 -32,0 z M 315 565 m -16, 0 a 16,16 0 1,1 32,0 a 16,16 0 1,1 -32,0 z M 315 315 m -65, 0 a 65,65 0 1,1 130,0 a 65,65 0 1,1 -130,0 z M 315 65 m -16, 0 a 16,16 0 1,1 32,0 a 16,16 0 1,1 -32,0 z " horiz-adv-x="600" unicode=":"/>
<glyph d="M 65 565 m -65, 0 a 65,65 0 1,1 130,0 a 65,65 0 1,1 -130,0 z M 65 315 m -65, 0 a 65,65 0 1,1 130,0 a 65,65 0 1,1 -130,0 z M 65 65 m -16, 0 a 16,16 0 1,1 32,0 a 16,16 0 1,1 -32,0 z M 315 565 m -16, 0 a 16,16 0 1,1 32,0 a 16,16 0 1,1 -32,0 z M 315 315 m -65, 0 a 65,65 0 1,1 130,0 a 65,65 0 1,1 -130,0 z M 315 65 m -16, 0 a 16,16 0 1,1 32,0 a 16,16 0 1,1 -32,0 z " horiz-adv-x="600" unicode="h"/>
<glyph d="M 65 565 m -16, 0 a 16,16 0 1,1 32,0 a 16,16 0 1,1 -32,0 z M 65 315 m -16, 0 a 16,16 0 1,1 32,0 a 16,16 0 1,1 -32,0 z M 65 65 m -65, 0 a 65,65 0 1,1 130,0 a 65,65 0 1,1 -130,0 z M 315 565 m -16, 0 a 16,16 0 1,1 32,0 a 16,16 0 1,1 -32,0 z M 315 315 m -65, 0 a 65,65 0 1,1 130,0 a 65,65 0 1,1 -130,0 z M 315 65 m -16, 0 a 16,16 0 1,1 32,0 a 16,16 0 1,1 -32,0 z " horiz-adv-x="600" unicode="*"/>
<glyph d="M 65 565 m -65, 0 a 65,65 0 1,1 130,0 a 65,65 0 1,1 -130,0 z M 65 315 m -16, 0 a 16,16 0 1,1 32,0 a 16,16 0 1,1 -32,0 z M 65 65 m -65, 0 a 65,65 0 1,1 130,0 a 65,65 0 1,1 -130,0 z M 315 565 m -16, 0 a 16,16 0 1,1 32,0 a 16,16 0 1,1 -32,0 z M 315 315 m -65, 0 a 65,65 0 1,1 130,0 a 65,65 0 1,1 -130,0 z M 315 65 m -16, 0 a 16,16 0 1,1 32,0 a 16,16 0 1,1 -32,0 z " horiz-adv-x="600" unicode="o"/>
<glyph d="M 65 565 m -16, 0 a 16,16 0 1,1 32,0 a 16,16 0 1,1 -32,0 z M 65 315 m -65, 0 a 65,65 0 1,1 130,0 a 65,65 0 1,1 -130,0 z M 65 65 m -65, 0 a 65,65 0 1,1 130,0 a 65,65 0 1,1 -130,0 z M 315 565 m -16, 0 a 16,16 0 1,1 32,0 a 16,16 0 1,1 -32,0 z M 315 315 m -65, 0 a 65,65 0 1,1 130,0 a 65,65 0 1,1 -130,0 z M 315 65 m -16, 0 a 16,16 0 1,1 32,0 a 16,16 0 1,1 -32,0 z " horiz-adv-x="600" unicode="+"/>
<glyph d="M 65 565 m -65, 0 a 65,65 0 1,1 130,0 a 65,65 0 1,1 -130,0 z M 65 315 m -65, 0 a 65,65 0 1,1 130,0 a 65,65 0 1,1 -130,0 z M 65 65 m -65, 0 a 65,65 0 1,1 130,0 a 65,65 0 1,1 -130,0 z M 315 565 m -16, 0 a 16,16 0 1,1 32,0 a 16,16 0 1,1 -32,0 z M 315 315 m -65, 0 a 65,65 0 1,1 130,0 a 65,65 0 1,1 -130,0 z M 315 65 m -16, 0 a 16,16 0 1,1 32,0 a 16,16 0 1,1 -32,0 z " horiz-adv-x="600" unicode="r"/>
<glyph d="M 65 565 m -16, 0 a 16,16 0 1,1 32,0 a 16,16 0 1,1 -32,0 z M 65 315 m -16, 0 a 16,16 0 1,1 32,0 a 16,16 0 1,1 -32,0 z M 65 65 m -16, 0 a 16,16 0 1,1 32,0 a 16,16 0 1,1 -32,0 z M 315 565 m -65, 0 a 65,65 0 1,1 130,0 a 65,65 0 1,1 -130,0 z M 315 315 m -65, 0 a 65,65 0 1,1 130,0 a 65,65 0 1,1 -130,0 z M 315 65 m -16, 0 a 16,16 0 1,1 32,0 a 16,16 0 1,1 -32,0 z " horiz-adv-x="600" unicode="&gt;"/>
<glyph d="M 65 565 m -65, 0 a 65,65 0 1,1 130,0 a 65,65 0 1,1 -130,0 z M 65 315 m -16, 0 a 16,16 0 1,1 32,0 a 16,16 0 1,1 -32,0 z M 65 65 m -16, 0 a 16,16 0 1,1 32,0 a 16,16 0 1,1 -32,0 z M 315 565 m -65, 0 a 65,65 0 1,1 130,0 a 65,65 0 1,1 -130,0 z M 315 315 m -65, 0 a 65,65 0 1,1 130,0 a 65,65 0 1,1 -130,0 z M 315 65 m -16, 0 a 16,16 0 1,1 32,0 a 16,16 0 1,1 -32,0 z " horiz-adv-x="600" unicode="d"/>
<glyph d="M 65 565 m -16, 0 a 16,16 0 1,1 32,0 a 16,16 0 1,1 -32,0 z M 65 315 m -65, 0 a 65,65 0 1,1 130,0 a 65,65 0 1,1 -130,0 z M 65 65 m -16, 0 a 16,16 0 1,1 32,0 a 16,16 0 1,1 -32,0 z M 315 565 m -65, 0 a 65,65 0 1,1 130,0 a 65,65 0 1,1 -130,0 z M 315 315 m -65, 0 a 65,65 0 1,1 130,0 a 65,65 0 1,1 -130,0 z M 315 65 m -16, 0 a 16,16 0 1,1 32,0 a 16,16 0 1,1 -32,0 z " horiz-adv-x="600" unicode="j"/>
<glyph d="M 65 565 m -65, 0 a 65,65 0 1,1 130,0 a 65,65 0 1,1 -130,0 z M 65 315 m -65, 0 a 65,65 0 1,1 130,0 a 65,65 0 1,1 -130,0 z M 65 65 m -16, 0 a 16,16 0 1,1 32,0 a 16,16 0 1,1 -32,0 z M 315 565 m -65, 0 a 65,65 0 1,1 130,0 a 65,65 0 1,1 -130,0 z M 315 315 m -65, 0 a 65,65 0 1,1 130,0 a 65,65 0 1,1 -130,0 z M 315 65 m -16, 0 a 16,16 0 1,1 32,0 a 16,16 0 1,1 -32,0 z " horiz-adv-x="600" unicode="g"/>
<glyph d="M 65 565 m -16, 0 a 16,16 0 1,1 32,0 a 16,16 0 1,1 -32,0 z M 65 315 m -16, 0 a 16,16 0 1,1 32,0 a 16,16 0 1,1 -32,0 z M 65 65 m -65, 0 a 65,65 0 1,1 130,0 a 65,65 0 1,1 -130,0 z M 315 565 m -65, 0 a 65,65 0 1,1 130,0 a 65,65 0 1,1 -130,0 z M 315 315 m -65, 0 a 65,65 0 1,1 130,0 a 65,65 0 1,1 -130,0 z M 315 65 m -16, 0 a 16,16 0 1,1 32,0 a 16,16 0 1,1 -32,0 z " horiz-adv-x="600" unicode="`"/>
<glyph d="M 65 565 m -65, 0 a 65,65 0 1,1 130,0 a 65,65 0 1,1 -130,0 z M 65 315 m -16, 0 a 16,16 0 1,1 32,0 a 16,16 0 1,1 -32,0 z M 65 65 m -65, 0 a 65,65 0 1,1 130,0 a 65,65 0 1,1 -130,0 z M 315 565 m -65, 0 a 65,65 0 1,1 130,0 a 65,65 0 1,1 -130,0 z M 315 315 m -65, 0 a 65,65 0 1,1 130,0 a 65,65 0 1,1 -130,0 z M 315 65 m -16, 0 a 16,16 0 1,1 32,0 a 16,16 0 1,1 -32,0 z " horiz-adv-x="600" unicode="n"/>
<glyph d="M 65 565 m -16, 0 a 16,16 0 1,1 32,0 a 16,16 0 1,1 -32,0 z M 65 315 m -65, 0 a 65,65 0 1,1 130,0 a 65,65 0 1,1 -130,0 z M 65 65 m -65, 0 a 65,65 0 1,1 130,0 a 65,65 0 1,1 -130,0 z M 315 565 m -65, 0 a 65,65 0 1,1 130,0 a 65,65 0 1,1 -130,0 z M 315 315 m -65, 0 a 65,65 0 1,1 130,0 a 65,65 0 1,1 -130,0 z M 315 65 m -16, 0 a 16,16 0 1,1 32,0 a 16,16 0 1,1 -32,0 z " horiz-adv-x="600" unicode="t"/>
<glyph d="M 65 565 m -65, 0 a 65,65 0 1,1 130,0 a 65,65 0 1,1 -130,0 z M 65 315 m -65, 0 a 65,65 0 1,1 130,0 a 65,65 0 1,1 -130,0 z M 65 65 m -65, 0 a 65,65 0 1,1 130,0 a 65,65 0 1,1 -130,0 z M 315 565 m -65, 0 a 65,65 0 1,1 130,0 a 65,65 0 1,1 -130,0 z M 315 315 m -65, 0 a 65,65 0 1,1 130,0 a 65,65 0 1,1 -130,0 z M 315 65 m -16, 0 a 16,16 0 1,1 32,0 a 16,16 0 1,1 -32,0 z " horiz-adv-x="600" unicode="q"/>
<glyph d="M 65 565 m -16, 0 a 16,16 0 1,1 32,0 a 16,16 0 1,1 -32,0 z M 65 315 m -16, 0 a 16,16 0 1,1 32,0 a 16,16 0 1,1 -32,0 z M 65 65 m -16, 0 a 16,16 0 1,1 32,0 a 16,16 0 1,1 -32,0 z M 315 565 m -16, 0 a 16,16 0 1,1 32,0 a 16,16 0 1,1 -32,0 z M 315 315 m -16, 0 a 16,16 0 1,1 32,0 a 16,16 0 1,1 -32,0 z M 315 65 m -65, 0 a 65,65 0 1,1 130,0 a 65,65 0 1,1 -130,0 z " horiz-adv-x="600" unicode="'"/>
<glyph d="M 65 565 m -65, 0 a 65,65 0 1,1 130,0 a 65,65 0 1,1 -130,0 z M 65 315 m -16, 0 a 16,16 0 1,1 32,0 a 16,16 0 1,1 -32,0 z M 65 65 m -16, 0 a 16,16 0 1,1 32,0 a 16,16 0 1,1 -32,0 z M 315 565 m -16, 0 a 16,16 0 1,1 32,0 a 16,16 0 1,1 -32,0 z M 315 315 m -16, 0 a 16,16 0 1,1 32,0 a 16,16 0 1,1 -32,0 z M 315 65 m -65, 0 a 65,65 0 1,1 130,0 a 65,65 0 1,1 -130,0 z " horiz-adv-x="600" unicode="1"/>
<glyph d="M 65 565 m -16, 0 a 16,16 0 1,1 32,0 a 16,16 0 1,1 -32,0 z M 65 315 m -65, 0 a 65,65 0 1,1 130,0 a 65,65 0 1,1 -130,0 z M 65 65 m -16, 0 a 16,16 0 1,1 32,0 a 16,16 0 1,1 -32,0 z M 315 565 m -16, 0 a 16,16 0 1,1 32,0 a 16,16 0 1,1 -32,0 z M 315 315 m -16, 0 a 16,16 0 1,1 32,0 a 16,16 0 1,1 -32,0 z M 315 65 m -65, 0 a 65,65 0 1,1 130,0 a 65,65 0 1,1 -130,0 z " horiz-adv-x="600" unicode="?"/>
<glyph d="M 65 565 m -65, 0 a 65,65 0 1,1 130,0 a 65,65 0 1,1 -130,0 z M 65 315 m -65, 0 a 65,65 0 1,1 130,0 a 65,65 0 1,1 -130,0 z M 65 65 m -16, 0 a 16,16 0 1,1 32,0 a 16,16 0 1,1 -32,0 z M 315 565 m -16, 0 a 16,16 0 1,1 32,0 a 16,16 0 1,1 -32,0 z M 315 315 m -16, 0 a 16,16 0 1,1 32,0 a 16,16 0 1,1 -32,0 z M 315 65 m -65, 0 a 65,65 0 1,1 130,0 a 65,65 0 1,1 -130,0 z " horiz-adv-x="600" unicode="2"/>
<glyph d="M 65 565 m -16, 0 a 16,16 0 1,1 32,0 a 16,16 0 1,1 -32,0 z M 65 315 m -16, 0 a 16,16 0 1,1 32,0 a 16,16 0 1,1 -32,0 z M 65 65 m -65, 0 a 65,65 0 1,1 130,0 a 65,65 0 1,1 -130,0 z M 315 565 m -16, 0 a 16,16 0 1,1 32,0 a 16,16 0 1,1 -32,0 z M 315 315 m -16, 0 a 16,16 0 1,1 32,0 a 16,16 0 1,1 -32,0 z M 315 65 m -65, 0 a 65,65 0 1,1 130,0 a 65,65 0 1,1 -130,0 z " horiz-adv-x="600" unicode="-"/>
<glyph d="M 65 565 m -65, 0 a 65,65 0 1,1 130,0 a 65,65 0 1,1 -130,0 z M 65 315 m -16, 0 a 16,16 0 1,1 32,0 a 16,16 0 1,1 -32,0 z M 65 65 m -65, 0 a 65,65 0 1,1 130,0 a 65,65 0 1,1 -130,0 z M 315 565 m -16, 0 a 16,16 0 1,1 32,0 a 16,16 0 1,1 -32,0 z M 315 315 m -16, 0 a 16,16 0 1,1 32,0 a 16,16 0 1,1 -32,0 z M 315 65 m -65, 0 a 65,65 0 1,1 130,0 a 65,65 0 1,1 -130,0 z " horiz-adv-x="600" unicode="u"/>
<glyph d="M 65 565 m -16, 0 a 16,16 0 1,1 32,0 a 16,16 0 1,1 -32,0 z M 65 315 m -65, 0 a 65,65 0 1,1 130,0 a 65,65 0 1,1 -130,0 z M 65 65 m -65, 0 a 65,65 0 1,1 130,0 a 65,65 0 1,1 -130,0 z M 315 565 m -16, 0 a 16,16 0 1,1 32,0 a 16,16 0 1,1 -32,0 z M 315 315 m -16, 0 a 16,16 0 1,1 32,0 a 16,16 0 1,1 -32,0 z M 315 65 m -65, 0 a 65,65 0 1,1 130,0 a 65,65 0 1,1 -130,0 z " horiz-adv-x="600" unicode="("/>
<glyph d="M 65 565 m -65, 0 a 65,65 0 1,1 130,0 a 65,65 0 1,1 -130,0 z M 65 315 m -65, 0 a 65,65 0 1,1 130,0 a 65,65 0 1,1 -130,0 z M 65 65 m -65, 0 a 65,65 0 1,1 130,0 a 65,65 0 1,1 -130,0 z M 315 565 m -16, 0 a 16,16 0 1,1 32,0 a 16,16 0 1,1 -32,0 z M 315 315 m -16, 0 a 16,16 0 1,1 32,0 a 16,16 0 1,1 -32,0 z M 315 65 m -65, 0 a 65,65 0 1,1 130,0 a 65,65 0 1,1 -130,0 z " horiz-adv-x="600" unicode="v"/>
<glyph d="M 65 565 m -16, 0 a 16,16 0 1,1 32,0 a 16,16 0 1,1 -32,0 z M 65 315 m -16, 0 a 16,16 0 1,1 32,0 a 16,16 0 1,1 -32,0 z M 65 65 m -16, 0 a 16,16 0 1,1 32,0 a 16,16 0 1,1 -32,0 z M 315 565 m -65, 0 a 65,65 0 1,1 130,0 a 65,65 0 1,1 -130,0 z M 315 315 m -16, 0 a 16,16 0 1,1 32,0 a 16,16 0 1,1 -32,0 z M 315 65 m -65, 0 a 65,65 0 1,1 130,0 a 65,65 0 1,1 -130,0 z " horiz-adv-x="600" unicode="$"/>
<glyph d="M 65 565 m -65, 0 a 65,65 0 1,1 130,0 a 65,65 0 1,1 -130,0 z M 65 315 m -16, 0 a 16,16 0 1,1 32,0 a 16,16 0 1,1 -32,0 z M 65 65 m -16, 0 a 16,16 0 1,1 32,0 a 16,16 0 1,1 -32,0 z M 315 565 m -65, 0 a 65,65 0 1,1 130,0 a 65,65 0 1,1 -130,0 z M 315 315 m -16, 0 a 16,16 0 1,1 32,0 a 16,16 0 1,1 -32,0 z M 315 65 m -65, 0 a 65,65 0 1,1 130,0 a 65,65 0 1,1 -130,0 z " horiz-adv-x="600" unicode="3"/>
<glyph d="M 65 565 m -16, 0 a 16,16 0 1,1 32,0 a 16,16 0 1,1 -32,0 z M 65 315 m -65, 0 a 65,65 0 1,1 130,0 a 65,65 0 1,1 -130,0 z M 65 65 m -16, 0 a 16,16 0 1,1 32,0 a 16,16 0 1,1 -32,0 z M 315 565 m -65, 0 a 65,65 0 1,1 130,0 a 65,65 0 1,1 -130,0 z M 315 315 m -16, 0 a 16,16 0 1,1 32,0 a 16,16 0 1,1 -32,0 z M 315 65 m -65, 0 a 65,65 0 1,1 130,0 a 65,65 0 1,1 -130,0 z " horiz-adv-x="600" unicode="9"/>
<glyph d="M 65 565 m -65, 0 a 65,65 0 1,1 130,0 a 65,65 0 1,1 -130,0 z M 65 315 m -65, 0 a 65,65 0 1,1 130,0 a 65,65 0 1,1 -130,0 z M 65 65 m -16, 0 a 16,16 0 1,1 32,0 a 16,16 0 1,1 -32,0 z M 315 565 m -65, 0 a 65,65 0 1,1 130,0 a 65,65 0 1,1 -130,0 z M 315 315 m -16, 0 a 16,16 0 1,1 32,0 a 16,16 0 1,1 -32,0 z M 315 65 m -65, 0 a 65,65 0 1,1 130,0 a 65,65 0 1,1 -130,0 z " horiz-adv-x="600" unicode="6"/>
<glyph d="M 65 565 m -16, 0 a 16,16 0 1,1 32,0 a 16,16 0 1,1 -32,0 z M 65 315 m -16, 0 a 16,16 0 1,1 32,0 a 16,16 0 1,1 -32,0 z M 65 65 m -65, 0 a 65,65 0 1,1 130,0 a 65,65 0 1,1 -130,0 z M 315 565 m -65, 0 a 65,65 0 1,1 130,0 a 65,65 0 1,1 -130,0 z M 315 315 m -16, 0 a 16,16 0 1,1 32,0 a 16,16 0 1,1 -32,0 z M 315 65 m -65, 0 a 65,65 0 1,1 130,0 a 65,65 0 1,1 -130,0 z " horiz-adv-x="600" unicode="0"/>
<glyph d="M 65 565 m -65, 0 a 65,65 0 1,1 130,0 a 65,65 0 1,1 -130,0 z M 65 315 m -16, 0 a 16,16 0 1,1 32,0 a 16,16 0 1,1 -32,0 z M 65 65 m -65, 0 a 65,65 0 1,1 130,0 a 65,65 0 1,1 -130,0 z M 315 565 m -65, 0 a 65,65 0 1,1 130,0 a 65,65 0 1,1 -130,0 z M 315 315 m -16, 0 a 16,16 0 1,1 32,0 a 16,16 0 1,1 -32,0 z M 315 65 m -65, 0 a 65,65 0 1,1 130,0 a 65,65 0 1,1 -130,0 z " horiz-adv-x="600" unicode="x"/>
<glyph d="M 65 565 m -16, 0 a 16,16 0 1,1 32,0 a 16,16 0 1,1 -32,0 z M 65 315 m -65, 0 a 65,65 0 1,1 130,0 a 65,65 0 1,1 -130,0 z M 65 65 m -65, 0 a 65,65 0 1,1 130,0 a 65,65 0 1,1 -130,0 z M 315 565 m -65, 0 a 65,65 0 1,1 130,0 a 65,65 0 1,1 -130,0 z M 315 315 m -16, 0 a 16,16 0 1,1 32,0 a 16,16 0 1,1 -32,0 z M 315 65 m -65, 0 a 65,65 0 1,1 130,0 a 65,65 0 1,1 -130,0 z " horiz-adv-x="600" unicode="~"/>
<glyph d="M 65 565 m -65, 0 a 65,65 0 1,1 130,0 a 65,65 0 1,1 -130,0 z M 65 315 m -65, 0 a 65,65 0 1,1 130,0 a 65,65 0 1,1 -130,0 z M 65 65 m -65, 0 a 65,65 0 1,1 130,0 a 65,65 0 1,1 -130,0 z M 315 565 m -65, 0 a 65,65 0 1,1 130,0 a 65,65 0 1,1 -130,0 z M 315 315 m -16, 0 a 16,16 0 1,1 32,0 a 16,16 0 1,1 -32,0 z M 315 65 m -65, 0 a 65,65 0 1,1 130,0 a 65,65 0 1,1 -130,0 z " horiz-adv-x="600" unicode="&amp;"/>
<glyph d="M 65 565 m -16, 0 a 16,16 0 1,1 32,0 a 16,16 0 1,1 -32,0 z M 65 315 m -16, 0 a 16,16 0 1,1 32,0 a 16,16 0 1,1 -32,0 z M 65 65 m -16, 0 a 16,16 0 1,1 32,0 a 16,16 0 1,1 -32,0 z M 315 565 m -16, 0 a 16,16 0 1,1 32,0 a 16,16 0 1,1 -32,0 z M 315 315 m -65, 0 a 65,65 0 1,1 130,0 a 65,65 0 1,1 -130,0 z M 315 65 m -65, 0 a 65,65 0 1,1 130,0 a 65,65 0 1,1 -130,0 z " horiz-adv-x="600" unicode="&lt;"/>
<glyph d="M 65 565 m -65, 0 a 65,65 0 1,1 130,0 a 65,65 0 1,1 -130,0 z M 65 315 m -16, 0 a 16,16 0 1,1 32,0 a 16,16 0 1,1 -32,0 z M 65 65 m -16, 0 a 16,16 0 1,1 32,0 a 16,16 0 1,1 -32,0 z M 315 565 m -16, 0 a 16,16 0 1,1 32,0 a 16,16 0 1,1 -32,0 z M 315 315 m -65, 0 a 65,65 0 1,1 130,0 a 65,65 0 1,1 -130,0 z M 315 65 m -65, 0 a 65,65 0 1,1 130,0 a 65,65 0 1,1 -130,0 z " horiz-adv-x="600" unicode="5"/>
<glyph d="M 65 565 m -16, 0 a 16,16 0 1,1 32,0 a 16,16 0 1,1 -32,0 z M 65 315 m -65, 0 a 65,65 0 1,1 130,0 a 65,65 0 1,1 -130,0 z M 65 65 m -16, 0 a 16,16 0 1,1 32,0 a 16,16 0 1,1 -32,0 z M 315 565 m -16, 0 a 16,16 0 1,1 32,0 a 16,16 0 1,1 -32,0 z M 315 315 m -65, 0 a 65,65 0 1,1 130,0 a 65,65 0 1,1 -130,0 z M 315 65 m -65, 0 a 65,65 0 1,1 130,0 a 65,65 0 1,1 -130,0 z " horiz-adv-x="600" unicode="/"/>
<glyph d="M 65 565 m -65, 0 a 65,65 0 1,1 130,0 a 65,65 0 1,1 -130,0 z M 65 315 m -65, 0 a 65,65 0 1,1 130,0 a 65,65 0 1,1 -130,0 z M 65 65 m -16, 0 a 16,16 0 1,1 32,0 a 16,16 0 1,1 -32,0 z M 315 565 m -16, 0 a 16,16 0 1,1 32,0 a 16,16 0 1,1 -32,0 z M 315 315 m -65, 0 a 65,65 0 1,1 130,0 a 65,65 0 1,1 -130,0 z M 315 65 m -65, 0 a 65,65 0 1,1 130,0 a 65,65 0 1,1 -130,0 z " horiz-adv-x="600" unicode="8"/>
<glyph d="M 65 565 m -16, 0 a 16,16 0 1,1 32,0 a 16,16 0 1,1 -32,0 z M 65 315 m -16, 0 a 16,16 0 1,1 32,0 a 16,16 0 1,1 -32,0 z M 65 65 m -65, 0 a 65,65 0 1,1 130,0 a 65,65 0 1,1 -130,0 z M 315 565 m -16, 0 a 16,16 0 1,1 32,0 a 16,16 0 1,1 -32,0 z M 315 315 m -65, 0 a 65,65 0 1,1 130,0 a 65,65 0 1,1 -130,0 z M 315 65 m -65, 0 a 65,65 0 1,1 130,0 a 65,65 0 1,1 -130,0 z " horiz-adv-x="600" unicode=")"/>
<glyph d="M 65 565 m -65, 0 a 65,65 0 1,1 130,0 a 65,65 0 1,1 -130,0 z M 65 315 m -16, 0 a 16,16 0 1,1 32,0 a 16,16 0 1,1 -32,0 z M 65 65 m -65, 0 a 65,65 0 1,1 130,0 a 65,65 0 1,1 -130,0 z M 315 565 m -16, 0 a 16,16 0 1,1 32,0 a 16,16 0 1,1 -32,0 z M 315 315 m -65, 0 a 65,65 0 1,1 130,0 a 65,65 0 1,1 -130,0 z M 315 65 m -65, 0 a 65,65 0 1,1 130,0 a 65,65 0 1,1 -130,0 z " horiz-adv-x="600" unicode="z"/>
<glyph d="M 65 565 m -16, 0 a 16,16 0 1,1 32,0 a 16,16 0 1,1 -32,0 z M 65 315 m -65, 0 a 65,65 0 1,1 130,0 a 65,65 0 1,1 -130,0 z M 65 65 m -65, 0 a 65,65 0 1,1 130,0 a 65,65 0 1,1 -130,0 z M 315 565 m -16, 0 a 16,16 0 1,1 32,0 a 16,16 0 1,1 -32,0 z M 315 315 m -65, 0 a 65,65 0 1,1 130,0 a 65,65 0 1,1 -130,0 z M 315 65 m -65, 0 a 65,65 0 1,1 130,0 a 65,65 0 1,1 -130,0 z " horiz-adv-x="600" unicode="="/>
<glyph d="M 65 565 m -65, 0 a 65,65 0 1,1 130,0 a 65,65 0 1,1 -130,0 z M 65 315 m -65, 0 a 65,65 0 1,1 130,0 a 65,65 0 1,1 -130,0 z M 65 65 m -65, 0 a 65,65 0 1,1 130,0 a 65,65 0 1,1 -130,0 z M 315 565 m -16, 0 a 16,16 0 1,1 32,0 a 16,16 0 1,1 -32,0 z M 315 315 m -65, 0 a 65,65 0 1,1 130,0 a 65,65 0 1,1 -130,0 z M 315 65 m -65, 0 a 65,65 0 1,1 130,0 a 65,65 0 1,1 -130,0 z " horiz-adv-x="600" unicode="{"/>
<glyph d="M 65 565 m -16, 0 a 16,16 0 1,1 32,0 a 16,16 0 1,1 -32,0 z M 65 315 m -16, 0 a 16,16 0 1,1 32,0 a 16,16 0 1,1 -32,0 z M 65 65 m -16, 0 a 16,16 0 1,1 32,0 a 16,16 0 1,1 -32,0 z M 315 565 m -65, 0 a 65,65 0 1,1 130,0 a 65,65 0 1,1 -130,0 z M 315 315 m -65, 0 a 65,65 0 1,1 130,0 a 65,65 0 1,1 -130,0 z M 315 65 m -65, 0 a 65,65 0 1,1 130,0 a 65,65 0 1,1 -130,0 z " horiz-adv-x="600" unicode="_"/>
<glyph d="M 65 565 m -65, 0 a 65,65 0 1,1 130,0 a 65,65 0 1,1 -130,0 z M 65 315 m -16, 0 a 16,16 0 1,1 32,0 a 16,16 0 1,1 -32,0 z M 65 65 m -16, 0 a 16,16 0 1,1 32,0 a 16,16 0 1,1 -32,0 z M 315 565 m -65, 0 a 65,65 0 1,1 130,0 a 65,65 0 1,1 -130,0 z M 315 315 m -65, 0 a 65,65 0 1,1 130,0 a 65,65 0 1,1 -130,0 z M 315 65 m -65, 0 a 65,65 0 1,1 130,0 a 65,65 0 1,1 -130,0 z " horiz-adv-x="600" unicode="4"/>
<glyph d="M 65 565 m -16, 0 a 16,16 0 1,1 32,0 a 16,16 0 1,1 -32,0 z M 65 315 m -65, 0 a 65,65 0 1,1 130,0 a 65,65 0 1,1 -130,0 z M 65 65 m -16, 0 a 16,16 0 1,1 32,0 a 16,16 0 1,1 -32,0 z M 315 565 m -65, 0 a 65,65 0 1,1 130,0 a 65,65 0 1,1 -130,0 z M 315 315 m -65, 0 a 65,65 0 1,1 130,0 a 65,65 0 1,1 -130,0 z M 315 65 m -65, 0 a 65,65 0 1,1 130,0 a 65,65 0 1,1 -130,0 z " horiz-adv-x="600" unicode="w"/>
<glyph d="M 65 565 m -65, 0 a 65,65 0 1,1 130,0 a 65,65 0 1,1 -130,0 z M 65 315 m -65, 0 a 65,65 0 1,1 130,0 a 65,65 0 1,1 -130,0 z M 65 65 m -16, 0 a 16,16 0 1,1 32,0 a 16,16 0 1,1 -32,0 z M 315 565 m -65, 0 a 65,65 0 1,1 130,0 a 65,65 0 1,1 -130,0 z M 315 315 m -65, 0 a 65,65 0 1,1 130,0 a 65,65 0 1,1 -130,0 z M 315 65 m -65, 0 a 65,65 0 1,1 130,0 a 65,65 0 1,1 -130,0 z " horiz-adv-x="600" unicode="7"/>
<glyph d="M 65 565 m -16, 0 a 16,16 0 1,1 32,0 a 16,16 0 1,1 -32,0 z M 65 315 m -16, 0 a 16,16 0 1,1 32,0 a 16,16 0 1,1 -32,0 z M 65 65 m -65, 0 a 65,65 0 1,1 130,0 a 65,65 0 1,1 -130,0 z M 315 565 m -65, 0 a 65,65 0 1,1 130,0 a 65,65 0 1,1 -130,0 z M 315 315 m -65, 0 a 65,65 0 1,1 130,0 a 65,65 0 1,1 -130,0 z M 315 65 m -65, 0 a 65,65 0 1,1 130,0 a 65,65 0 1,1 -130,0 z " horiz-adv-x="600" unicode="#"/>
<glyph d="M 65 565 m -65, 0 a 65,65 0 1,1 130,0 a 65,65 0 1,1 -130,0 z M 65 315 m -16, 0 a 16,16 0 1,1 32,0 a 16,16 0 1,1 -32,0 z M 65 65 m -65, 0 a 65,65 0 1,1 130,0 a 65,65 0 1,1 -130,0 z M 315 565 m -65, 0 a 65,65 0 1,1 130,0 a 65,65 0 1,1 -130,0 z M 315 315 m -65, 0 a 65,65 0 1,1 130,0 a 65,65 0 1,1 -130,0 z M 315 65 m -65, 0 a 65,65 0 1,1 130,0 a 65,65 0 1,1 -130,0 z " horiz-adv-x="600" unicode="y"/>
<glyph d="M 65 565 m -16, 0 a 16,16 0 1,1 32,0 a 16,16 0 1,1 -32,0 z M 65 315 m -65, 0 a 65,65 0 1,1 130,0 a 65,65 0 1,1 -130,0 z M 65 65 m -65, 0 a 65,65 0 1,1 130,0 a 65,65 0 1,1 -130,0 z M 315 565 m -65, 0 a 65,65 0 1,1 130,0 a 65,65 0 1,1 -130,0 z M 315 315 m -65, 0 a 65,65 0 1,1 130,0 a 65,65 0 1,1 -130,0 z M 315 65 m -65, 0 a 65,65 0 1,1 130,0 a 65,65 0 1,1 -130,0 z " horiz-adv-x="600" unicode="}"/>
<glyph d="M 65 565 m -65, 0 a 65,65 0 1,1 130,0 a 65,65 0 1,1 -130,0 z M 65 315 m -65, 0 a 65,65 0 1,1 130,0 a 65,65 0 1,1 -130,0 z M 65 65 m -65, 0 a 65,65 0 1,1 130,0 a 65,65 0 1,1 -130,0 z M 315 565 m -65, 0 a 65,65 0 1,1 130,0 a 65,65 0 1,1 -130,0 z M 315 315 m -65, 0 a 65,65 0 1,1 130,0 a 65,65 0 1,1 -130,0 z M 315 65 m -65, 0 a 65,65 0 1,1 130,0 a 65,65 0 1,1 -130,0 z " horiz-adv-x="600" unicode="%"/>
</font>
</defs>
</svg>
