digraph {
overlap = scale;
splines = true;
labelfontsize = 30;
noeud1 [label="tmp/hyphens.xsl"]
noeud2 [label="system/hyphenation.xsl"]
noeud1 -> noeud2
noeud3 [label="tmp/xsl.xsl"]
noeud4 [label="system/base.xsl"]
noeud3 -> noeud4
noeud5 [label="system/fr-g2.xsl"]
noeud3 -> noeud5
noeud6 [label="system/fr-maths.xsl"]
noeud3 -> noeud6
noeud7 [label="system/fr-chimie.xsl"]
noeud3 -> noeud7
noeud8 [label="tmp/fr-g2-rules.xsl"]
noeud3 -> noeud8
noeud9 [label="tmp/paramsAll.xsl"]
noeud3 -> noeud9
noeud10 [label="tmp/paramsTrans.xsl"]
noeud3 -> noeud10
noeud11 [label="tmp/xsl-mep.xsl"]
noeud11 -> noeud9
noeud12 [label="tmp/paramsMEP.xsl"]
noeud11 -> noeud12
noeud11 -> noeud1
noeud13 [label="system/miseEnPage.xsl"]
noeud11 -> noeud13
noeud3 -> noeud1
noeud14 [label="system/outils.xsl"]
noeud4 -> noeud14
noeud15 [label="system/ressources/liste-fr-g1.xsl"]
noeud4 -> noeud15
noeud16 [label="system/no-mep.xsl"]
noeud17 [label="system/nat-functs.xsl"]
noeud16 -> noeud17
noeud18 [label="system/fr-commun.xsl"]
noeud5 -> noeud18
noeud19 [label="system/ressources/liste-fr-g2.xsl"]
noeud5 -> noeud19
noeud20 [label="system/fr-g1.xsl"]
noeud20 -> noeud18
noeud2 -> noeud17
noeud21 [label="system/musique.xsl"]
noeud22 [label="system/mu_measure.xsl"]
noeud21 -> noeud22
noeud23 [label="system/mu_items.xsl"]
noeud21 -> noeud23
noeud24 [label="system/mu_sep.xsl"]
noeud21 -> noeud24
noeud25 [label="system/mu_lyric.xsl"]
noeud21 -> noeud25
noeud26 [label="system/functions/functx.xsl"]
noeud21 -> noeud26
noeud27 [label="system/no-mep-preserve-tag.xsl"]
noeud27 -> noeud17
noeud28 [label="system/coupures.xsl"]
noeud13 -> noeud28
noeud29 [label="system/xhtml2interne.xsl"]
noeud29 -> noeud26
noeud30 [label="system/xhtml2internePreserve.xsl"]
noeud30 -> noeud26
noeud4 -> noeud17
noeud17 -> noeud26
noeud28 -> noeud26
noeud16 -> noeud26
noeud31 [label="system/tan.xsl"]
noeud31 -> noeud26
noeud32 [label="system/tanMaths.xsl"]
noeud31 -> noeud32
noeud32 -> noeud17
noeud32 -> noeud26
noeud33 [label="system/outilsMaths.xsl"]
noeud32 -> noeud33
noeud34 [label="system/propername_detection.xsl"]
noeud34 -> noeud17
noeud35 [label="system/dtbook2interne.xsl"]
noeud35 -> noeud26
noeud36 [label="system/fr-maths-pass1-sanstemplate.xsl"]
noeud37 [label="system/set.xsl"]
noeud36 -> noeud37
noeud38 [label="system/fr-maths-pass1.xsl"]
noeud38 -> noeud26
noeud6 -> noeud38
noeud27 -> noeud26
}
